2
13
1 577.0458 281.7921
101 574.6563 284.1422
201 568.2892 289.0740
301 560.3898 285.6086
401 557.2236 286.4754
501 557.9404 287.2453
601 547.7676 294.8265
701 551.4845 308.6288
801 533.7114 309.5743
901 537.6074 306.6938
1001 556.4138 283.6832
1101 571.5873 284.6805
1201 544.0044 292.7047
1301 567.6278 284.4938
1401 583.0645 313.6725
1501 557.7463 327.9953
1601 550.1443 338.0087
1701 545.6993 331.0602
1801 557.5000 327.3750
1901 560.7500 327.5000
2001 554.4564 326.3943
2101 555.4114 326.0656
2201 558.6796 324.4655
2301 579.0442 327.1538
2401 588.2993 322.3562
2501 593.3309 321.4262
2601 592.2593 320.2675
2701 594.6169 323.2265
2801 598.2506 306.6378
2901 598.3329 313.4468
3001 590.8992 333.7414
3101 595.9885 342.4232
3201 595.0678 343.5780
3301 592.6859 343.7365
3401 593.3638 343.0592
3501 593.6126 340.5600
3601 595.4113 341.2515
3701 595.3427 338.6229
3801 593.6469 340.9181
3901 596.4818 342.7202
4001 594.3177 343.3410
4101 594.4481 342.7206
4201 594.4871 342.8768
4301 594.3401 343.0883
4401 593.5322 341.8386
4501 592.5845 341.0217
4601 590.0994 342.0126
4701 588.3427 341.7337
4801 586.4700 341.7408
4901 583.7041 342.1851
5001 583.0347 343.1714
5101 566.5712 346.7224
5201 566.6033 349.4573
5301 578.7594 315.2620
5401 563.9780 293.9148
5501 555.6193 286.1544
5601 554.3189 284.3864
5701 533.0238 286.4835
5801 514.2202 284.6367
5901 496.3911 285.0919
6001 435.6246 288.6677
6101 383.4686 217.1802
6201 350.7714 226.0117
6301 301.2749 256.4827
6401 283.0060 266.3323
6501 287.5978 261.8843
6601 288.0851 262.6688
6701 284.8626 266.6900
6801 285.3246 264.4517
6901 276.6020 263.8266
7001 274.2346 264.2155
7101 274.9274 265.3760
7201 280.6351 258.5933
7301 280.8136 258.8670
7401 281.0480 259.5790
7501 281.1483 260.3260
7601 281.2699 260.1516
7701 281.4866 258.9850
7801 281.1097 258.6797
7901 280.7938 260.3256
8001 281.4352 259.8333
8101 281.7771 259.4613
8201 280.6636 259.9621
8301 280.7000 258.9047
8401 281.4745 259.5668
8501 280.8359 260.1240
8601 281.2911 259.9121
8701 280.7386 260.4799
8801 282.1180 259.0348
8901 281.0171 259.7303
9001 282.4169 259.6994
9101 281.2861 258.5974
9201 282.2697 259.4503
9301 281.9262 258.8239
9401 283.0890 258.4048
9501 285.0540 257.8816
9601 281.8102 260.2251
9701 281.4673 258.5229
9801 281.2184 259.3482
9901 279.6950 259.6732
