2
29
1 810.2686 314.4478
101 812.7883 322.3558
201 814.4879 327.0953
301 813.5900 321.8818
401 808.2189 324.5754
501 788.3699 318.1057
601 768.5566 306.8388
701 765.7074 310.2856
801 765.8049 310.1751
901 760.9031 307.7822
1001 765.3364 307.9255
1101 763.8353 305.1820
1201 762.3384 305.9803
1301 765.4022 306.0688
1401 766.4470 305.1592
1501 767.5865 306.1536
1601 775.1894 319.1259
1701 779.6351 304.0762
1801 769.9103 303.1125
1901 762.7976 306.9698
2001 764.3365 302.7465
2101 765.1494 304.1819
2201 763.2432 303.7711
2301 763.5770 304.4143
2401 776.7291 309.4948
2501 776.3637 306.8669
2601 776.1248 305.7343
2701 775.5326 306.3520
2801 782.4645 303.9868
2901 798.7754 316.9055
3001 803.8732 328.2927
3101 770.1904 310.9241
3201 768.7111 311.2241
3301 777.0678 310.2466
3401 775.4473 307.5648
3501 773.8026 304.8612
3601 775.7338 305.1693
3701 790.0248 307.2627
3801 778.3232 306.7266
3901 780.4205 305.0067
4001 777.1172 319.7941
4101 779.6552 319.6087
4201 771.0096 320.6283
4301 778.1252 340.1188
4401 785.0062 336.9737
4501 792.3337 325.2472
4601 815.2612 292.3274
4701 820.6282 289.1021
4801 820.0504 290.1375
4901 819.0562 288.5867
5001 817.6752 290.9023
5101 818.1884 290.4898
5201 819.7534 289.4882
5301 816.8528 291.3763
5401 817.7457 294.2066
5501 816.5516 292.6992
5601 815.9511 295.4695
5701 813.7242 291.8517
5801 813.5750 289.7356
5901 819.7924 288.2397
6001 820.5789 288.4926
6101 819.5605 287.9999
6201 820.0037 286.7717
6301 819.6403 288.1970
6401 819.4866 289.6572
6501 820.0223 286.7285
6601 818.6077 289.6829
6701 818.6747 291.4730
6801 819.1893 289.2692
6901 820.5800 287.0451
7001 821.0010 289.1511
7101 821.5154 285.9138
7201 821.4255 289.4555
7301 822.1837 285.8915
7401 820.9069 286.8200
7501 819.6631 288.6977
7601 820.7678 287.0225
7701 821.7071 287.0063
7801 832.4562 277.7761
7901 842.8140 267.5531
8001 841.3499 260.0591
8101 838.4609 257.0269
8201 836.6937 261.1999
8301 822.6391 273.7401
8401 822.5514 275.0753
8501 823.6699 277.8694
8601 824.0488 276.8907
8701 819.8476 270.7528
8801 828.2012 255.9753
8901 830.4223 245.6861
9001 837.6384 253.6184
9101 844.9927 261.2219
9201 845.9786 264.5533
9301 846.2065 281.4808
9401 841.1044 279.7383
9501 841.4623 277.7161
9601 847.3630 279.6397
9701 844.0814 281.7330
9801 842.3777 280.7537
9901 840.8922 283.9521
