C5 = [ 2751,  794,  450,  269,  191,  120,  84,  72,  60,  28,  25,  20,  12,  11,  15,  8,  10,  9,  8,  6,  8,  6,  4,  6,  7,  3,  4,  0,  2,  0,  1,  3,  3,  0,  0,  0,  0,  0,  0,  0,  1,  0,  1,  1,  0,  0,  0,  0,  0,  1,  0,  0,  0,  0,  0,  0,  0,  0,  0,  0,  1,  0,  0,  0,  0,  0,  0,  0,  0,  0,  0,  0,  0,  0,  0,  0,  0,  0,  0,  0,  0,  0,  0,  0,  0,  0,  0,  0,  0,  0,  0,  0,  0,  0,  0,  0,  0,  0,  0,  0,  0,  0,  0,  0,  0,  0,  0,  0,  0,  0,  0,  0,  0,  0,  0,  0,  0,  0,  0,  0,  0,  0,  0,  0,  0,  0,  0,  0,  0,  0,  0,  0,  0,  0,  0,  0,  0,  0,  0,  0,  0,  0,  0,  0,  0,  0,  0,  0,  0,  0,  0,  0,  0,  0,  0,  0,  0,  0,  0,  0,  0,  0,  0,  0,  0,  0,  0,  0,  0,  0,  0,  0,  0,  0,  0,  0,  0,  0,  0,  1,  1,  0,  0,  1,  0,  1,  0,  0,  0,  0,  0,  0,  0,  0,  0,  0,  0,  0,  0,  1];
X_1 = [1.502500, 4.507500, 7.512500, 10.517500, 13.522500, 16.527500, 19.532500, 22.537500, 25.542500, 28.547500, 31.552500, 34.557500, 37.562500, 40.567500, 43.572500, 46.577500, 49.582500, 52.587500, 55.592500, 58.597500, 61.602500, 64.607500, 67.612500, 70.617500, 73.622500, 76.627500, 79.632500, 82.637500, 85.642500, 88.647500, 91.652500, 94.657500, 97.662500, 100.667500, 103.672500, 106.677500, 109.682500, 112.687500, 115.692500, 118.697500, 121.702500, 124.707500, 127.712500, 130.717500, 133.722500, 136.727500, 139.732500, 142.737500, 145.742500, 148.747500, 151.752500, 154.757500, 157.762500, 160.767500, 163.772500, 166.777500, 169.782500, 172.787500, 175.792500, 178.797500, 181.802500, 184.807500, 187.812500, 190.817500, 193.822500, 196.827500, 199.832500, 202.837500, 205.842500, 208.847500, 211.852500, 214.857500, 217.862500, 220.867500, 223.872500, 226.877500, 229.882500, 232.887500, 235.892500, 238.897500, 241.902500, 244.907500, 247.912500, 250.917500, 253.922500, 256.927500, 259.932500, 262.937500, 265.942500, 268.947500, 271.952500, 274.957500, 277.962500, 280.967500, 283.972500, 286.977500, 289.982500, 292.987500, 295.992500, 298.997500, 302.002500, 305.007500, 308.012500, 311.017500, 314.022500, 317.027500, 320.032500, 323.037500, 326.042500, 329.047500, 332.052500, 335.057500, 338.062500, 341.067500, 344.072500, 347.077500, 350.082500, 353.087500, 356.092500, 359.097500, 362.102500, 365.107500, 368.112500, 371.117500, 374.122500, 377.127500, 380.132500, 383.137500, 386.142500, 389.147500, 392.152500, 395.157500, 398.162500, 401.167500, 404.172500, 407.177500, 410.182500, 413.187500, 416.192500, 419.197500, 422.202500, 425.207500, 428.212500, 431.217500, 434.222500, 437.227500, 440.232500, 443.237500, 446.242500, 449.247500, 452.252500, 455.257500, 458.262500, 461.267500, 464.272500, 467.277500, 470.282500, 473.287500, 476.292500, 479.297500, 482.302500, 485.307500, 488.312500, 491.317500, 494.322500, 497.327500, 500.332500, 503.337500, 506.342500, 509.347500, 512.352500, 515.357500, 518.362500, 521.367500, 524.372500, 527.377500, 530.382500, 533.387500, 536.392500, 539.397500, 542.402500, 545.407500, 548.412500, 551.417500, 554.422500, 557.427500, 560.432500, 563.437500, 566.442500, 569.447500, 572.452500, 575.457500, 578.462500, 581.467500, 584.472500, 587.477500, 590.482500, 593.487500, 596.492500, 599.497500];
figure;
subplot(3,1,1);
bar(X_1,C5);
xlabel('delta distance')
ylabel('ant count')
title('Colony 5')
subplot(3,1,2);
bar(X_1,C5);
xlabel('delta distance')
ylabel('ant count')
title('Colony 5 (logarithmic y-axis);')
set(gca,'YScale','log');
subplot(3,1,3);
text(0.5,0.5,' Mean = 6.804, Median = 1.503, Mode = 43.573, Population size = 5000.000','FontSize',14,'HorizontalAlignment','center');
C6 = [ 1898,  346,  154,  111,  58,  59,  53,  34,  33,  31,  19,  19,  14,  16,  10,  12,  11,  9,  10,  7,  2,  6,  7,  7,  1,  2,  2,  4,  1,  7,  4,  2,  1,  6,  3,  5,  3,  0,  1,  7,  1,  2,  1,  4,  1,  2,  0,  1,  2,  0,  1,  0,  0,  1,  0,  0,  1,  0,  0,  0,  0,  0,  0,  0,  1,  0,  1,  1,  1,  0,  0,  0,  1,  0,  0,  0,  0,  1,  0,  0,  0,  0,  0,  0,  0,  0,  0,  0,  0,  0,  0,  0,  0,  0,  0,  0,  0,  0,  0,  0,  0,  0,  1,  0,  0,  0,  0,  0,  0,  0,  0,  0,  0,  0,  0,  0,  0,  0,  0,  0,  0,  0,  0,  0,  0,  0,  0,  0,  0,  0,  0,  0,  0,  0,  0,  0,  0,  0,  0,  0,  0,  0,  0,  0,  0,  0,  0,  0,  0,  0,  0,  0,  0,  0,  0,  0,  0,  0,  0,  0,  0,  0,  0,  0,  0,  0,  0,  0,  0,  0,  0,  0,  0,  0,  0,  0,  0,  0,  0,  0,  0,  0,  0,  0,  0,  0,  0,  0,  0,  0,  0,  0,  0,  0,  0,  0,  0,  0,  0,  1];
X_2 = [0.985000, 2.955000, 4.925000, 6.895000, 8.865000, 10.835000, 12.805000, 14.775000, 16.745000, 18.715000, 20.685000, 22.655000, 24.625000, 26.595000, 28.565000, 30.535000, 32.505000, 34.475000, 36.445000, 38.415000, 40.385000, 42.355000, 44.325000, 46.295000, 48.265000, 50.235000, 52.205000, 54.175000, 56.145000, 58.115000, 60.085000, 62.055000, 64.025000, 65.995000, 67.965000, 69.935000, 71.905000, 73.875000, 75.845000, 77.815000, 79.785000, 81.755000, 83.725000, 85.695000, 87.665000, 89.635000, 91.605000, 93.575000, 95.545000, 97.515000, 99.485000, 101.455000, 103.425000, 105.395000, 107.365000, 109.335000, 111.305000, 113.275000, 115.245000, 117.215000, 119.185000, 121.155000, 123.125000, 125.095000, 127.065000, 129.035000, 131.005000, 132.975000, 134.945000, 136.915000, 138.885000, 140.855000, 142.825000, 144.795000, 146.765000, 148.735000, 150.705000, 152.675000, 154.645000, 156.615000, 158.585000, 160.555000, 162.525000, 164.495000, 166.465000, 168.435000, 170.405000, 172.375000, 174.345000, 176.315000, 178.285000, 180.255000, 182.225000, 184.195000, 186.165000, 188.135000, 190.105000, 192.075000, 194.045000, 196.015000, 197.985000, 199.955000, 201.925000, 203.895000, 205.865000, 207.835000, 209.805000, 211.775000, 213.745000, 215.715000, 217.685000, 219.655000, 221.625000, 223.595000, 225.565000, 227.535000, 229.505000, 231.475000, 233.445000, 235.415000, 237.385000, 239.355000, 241.325000, 243.295000, 245.265000, 247.235000, 249.205000, 251.175000, 253.145000, 255.115000, 257.085000, 259.055000, 261.025000, 262.995000, 264.965000, 266.935000, 268.905000, 270.875000, 272.845000, 274.815000, 276.785000, 278.755000, 280.725000, 282.695000, 284.665000, 286.635000, 288.605000, 290.575000, 292.545000, 294.515000, 296.485000, 298.455000, 300.425000, 302.395000, 304.365000, 306.335000, 308.305000, 310.275000, 312.245000, 314.215000, 316.185000, 318.155000, 320.125000, 322.095000, 324.065000, 326.035000, 328.005000, 329.975000, 331.945000, 333.915000, 335.885000, 337.855000, 339.825000, 341.795000, 343.765000, 345.735000, 347.705000, 349.675000, 351.645000, 353.615000, 355.585000, 357.555000, 359.525000, 361.495000, 363.465000, 365.435000, 367.405000, 369.375000, 371.345000, 373.315000, 375.285000, 377.255000, 379.225000, 381.195000, 383.165000, 385.135000, 387.105000, 389.075000, 391.045000, 393.015000];
figure;
subplot(3,1,1);
bar(X_2,C6);
xlabel('delta distance')
ylabel('ant count')
title('Colony 6')
subplot(3,1,2);
bar(X_2,C6);
xlabel('delta distance')
ylabel('ant count')
title('Colony 6 (logarithmic y-axis);')
set(gca,'YScale','log');
subplot(3,1,3);
text(0.5,0.5,' Mean = 6.079, Median = 0.985, Mode = 26.595, Population size = 3000.000','FontSize',14,'HorizontalAlignment','center');
C5C6 = [ 4844,  1084,  606,  363,  263,  163,  126,  100,  84,  44,  42,  36,  24,  15,  25,  18,  12,  12,  12,  14,  13,  11,  9,  13,  8,  9,  7,  3,  6,  2,  2,  6,  3,  1,  1,  0,  0,  1,  0,  0,  1,  0,  2,  2,  2,  0,  0,  1,  0,  1,  1,  0,  0,  0,  0,  0,  0,  0,  0,  0,  1,  0,  0,  0,  0,  0,  0,  1,  0,  0,  0,  0,  0,  0,  0,  0,  0,  0,  0,  0,  0,  0,  0,  0,  0,  0,  0,  0,  0,  0,  0,  0,  0,  0,  0,  0,  0,  0,  0,  0,  0,  0,  0,  0,  0,  0,  0,  0,  0,  0,  0,  0,  0,  0,  0,  0,  0,  0,  0,  0,  0,  0,  0,  0,  0,  0,  0,  0,  0,  0,  1,  0,  0,  0,  0,  0,  0,  0,  0,  0,  0,  0,  0,  0,  0,  0,  0,  0,  0,  0,  0,  0,  0,  0,  0,  0,  0,  0,  0,  0,  0,  0,  0,  0,  0,  0,  0,  0,  0,  0,  0,  0,  0,  0,  0,  0,  0,  0,  0,  1,  1,  0,  0,  1,  0,  1,  0,  0,  0,  0,  0,  0,  0,  0,  0,  0,  0,  0,  0,  1];
X_3 = [1.502500, 4.507500, 7.512500, 10.517500, 13.522500, 16.527500, 19.532500, 22.537500, 25.542500, 28.547500, 31.552500, 34.557500, 37.562500, 40.567500, 43.572500, 46.577500, 49.582500, 52.587500, 55.592500, 58.597500, 61.602500, 64.607500, 67.612500, 70.617500, 73.622500, 76.627500, 79.632500, 82.637500, 85.642500, 88.647500, 91.652500, 94.657500, 97.662500, 100.667500, 103.672500, 106.677500, 109.682500, 112.687500, 115.692500, 118.697500, 121.702500, 124.707500, 127.712500, 130.717500, 133.722500, 136.727500, 139.732500, 142.737500, 145.742500, 148.747500, 151.752500, 154.757500, 157.762500, 160.767500, 163.772500, 166.777500, 169.782500, 172.787500, 175.792500, 178.797500, 181.802500, 184.807500, 187.812500, 190.817500, 193.822500, 196.827500, 199.832500, 202.837500, 205.842500, 208.847500, 211.852500, 214.857500, 217.862500, 220.867500, 223.872500, 226.877500, 229.882500, 232.887500, 235.892500, 238.897500, 241.902500, 244.907500, 247.912500, 250.917500, 253.922500, 256.927500, 259.932500, 262.937500, 265.942500, 268.947500, 271.952500, 274.957500, 277.962500, 280.967500, 283.972500, 286.977500, 289.982500, 292.987500, 295.992500, 298.997500, 302.002500, 305.007500, 308.012500, 311.017500, 314.022500, 317.027500, 320.032500, 323.037500, 326.042500, 329.047500, 332.052500, 335.057500, 338.062500, 341.067500, 344.072500, 347.077500, 350.082500, 353.087500, 356.092500, 359.097500, 362.102500, 365.107500, 368.112500, 371.117500, 374.122500, 377.127500, 380.132500, 383.137500, 386.142500, 389.147500, 392.152500, 395.157500, 398.162500, 401.167500, 404.172500, 407.177500, 410.182500, 413.187500, 416.192500, 419.197500, 422.202500, 425.207500, 428.212500, 431.217500, 434.222500, 437.227500, 440.232500, 443.237500, 446.242500, 449.247500, 452.252500, 455.257500, 458.262500, 461.267500, 464.272500, 467.277500, 470.282500, 473.287500, 476.292500, 479.297500, 482.302500, 485.307500, 488.312500, 491.317500, 494.322500, 497.327500, 500.332500, 503.337500, 506.342500, 509.347500, 512.352500, 515.357500, 518.362500, 521.367500, 524.372500, 527.377500, 530.382500, 533.387500, 536.392500, 539.397500, 542.402500, 545.407500, 548.412500, 551.417500, 554.422500, 557.427500, 560.432500, 563.437500, 566.442500, 569.447500, 572.452500, 575.457500, 578.462500, 581.467500, 584.472500, 587.477500, 590.482500, 593.487500, 596.492500, 599.497500];
figure;
subplot(3,1,1);
bar(X_3,C5C6);
xlabel('delta distance')
ylabel('ant count')
title('Colony 5 & 6 together')
subplot(3,1,2);
bar(X_3,C5C6);
xlabel('delta distance')
ylabel('ant count')
title('Colony 5 & 6 together (logarithmic y-axis);')
set(gca,'YScale','log');
subplot(3,1,3);
text(0.5,0.5,' Mean = 6.577, Median = 1.503, Mode = 46.578, Population size = 8000.000','FontSize',14,'HorizontalAlignment','center');
