TA = [ 5,  0,  1,  0,  0,  0,  0,  0,  1,  0,  0,  0,  0,  0,  0,  0,  0,  0,  0,  0,  0,  0,  0,  0,  0,  0,  0,  0,  0,  0,  0,  0,  0,  0,  0,  0,  0,  0,  0,  0,  0,  0,  0,  0,  0,  0,  0,  1,  0,  0,  1,  0,  0,  0,  0,  0,  0,  0,  1,  0,  0,  0,  0,  0,  0,  0,  0,  0,  0,  0,  0,  0,  1,  0,  0,  0,  0,  0,  0,  0,  0,  1,  0,  1,  0,  0,  0,  0,  0,  0,  3,  3,  2,  5,  3,  5,  4,  5,  7,  7,  3,  10,  10,  17,  17,  19,  9,  13,  23,  28,  22,  30,  37,  41,  30,  53,  56,  50,  61,  59,  64,  60,  77,  77,  70,  88,  76,  80,  93,  94,  100,  113,  107,  111,  82,  119,  122,  117,  110,  108,  110,  116,  88,  107,  107,  110,  115,  108,  91,  90,  90,  101,  97,  89,  71,  90,  70,  69,  65,  67,  61,  54,  51,  38,  48,  46,  39,  32,  25,  30,  18,  18,  22,  21,  34,  21,  10,  9,  5,  10,  8,  7,  5,  4,  4,  2,  3,  1,  3,  3,  1,  0,  1,  1,  0,  0,  0,  0,  0,  1];
X_1 = [21.780000, 65.340000, 108.900000, 152.460000, 196.020000, 239.580000, 283.140000, 326.700000, 370.260000, 413.820000, 457.380000, 500.940000, 544.500000, 588.060000, 631.620000, 675.180000, 718.740000, 762.300000, 805.860000, 849.420000, 892.980000, 936.540000, 980.100000, 1023.660000, 1067.220000, 1110.780000, 1154.340000, 1197.900000, 1241.460000, 1285.020000, 1328.580000, 1372.140000, 1415.700000, 1459.260000, 1502.820000, 1546.380000, 1589.940000, 1633.500000, 1677.060000, 1720.620000, 1764.180000, 1807.740000, 1851.300000, 1894.860000, 1938.420000, 1981.980000, 2025.540000, 2069.100000, 2112.660000, 2156.220000, 2199.780000, 2243.340000, 2286.900000, 2330.460000, 2374.020000, 2417.580000, 2461.140000, 2504.700000, 2548.260000, 2591.820000, 2635.380000, 2678.940000, 2722.500000, 2766.060000, 2809.620000, 2853.180000, 2896.740000, 2940.300000, 2983.860000, 3027.420000, 3070.980000, 3114.540000, 3158.100000, 3201.660000, 3245.220000, 3288.780000, 3332.340000, 3375.900000, 3419.460000, 3463.020000, 3506.580000, 3550.140000, 3593.700000, 3637.260000, 3680.820000, 3724.380000, 3767.940000, 3811.500000, 3855.060000, 3898.620000, 3942.180000, 3985.740000, 4029.300000, 4072.860000, 4116.420000, 4159.980000, 4203.540000, 4247.100000, 4290.660000, 4334.220000, 4377.780000, 4421.340000, 4464.900000, 4508.460000, 4552.020000, 4595.580000, 4639.140000, 4682.700000, 4726.260000, 4769.820000, 4813.380000, 4856.940000, 4900.500000, 4944.060000, 4987.620000, 5031.180000, 5074.740000, 5118.300000, 5161.860000, 5205.420000, 5248.980000, 5292.540000, 5336.100000, 5379.660000, 5423.220000, 5466.780000, 5510.340000, 5553.900000, 5597.460000, 5641.020000, 5684.580000, 5728.140000, 5771.700000, 5815.260000, 5858.820000, 5902.380000, 5945.940000, 5989.500000, 6033.060000, 6076.620000, 6120.180000, 6163.740000, 6207.300000, 6250.860000, 6294.420000, 6337.980000, 6381.540000, 6425.100000, 6468.660000, 6512.220000, 6555.780000, 6599.340000, 6642.900000, 6686.460000, 6730.020000, 6773.580000, 6817.140000, 6860.700000, 6904.260000, 6947.820000, 6991.380000, 7034.940000, 7078.500000, 7122.060000, 7165.620000, 7209.180000, 7252.740000, 7296.300000, 7339.860000, 7383.420000, 7426.980000, 7470.540000, 7514.100000, 7557.660000, 7601.220000, 7644.780000, 7688.340000, 7731.900000, 7775.460000, 7819.020000, 7862.580000, 7906.140000, 7949.700000, 7993.260000, 8036.820000, 8080.380000, 8123.940000, 8167.500000, 8211.060000, 8254.620000, 8298.180000, 8341.740000, 8385.300000, 8428.860000, 8472.420000, 8515.980000, 8559.540000, 8603.100000, 8646.660000, 8690.220000];
figure;
subplot(3,1,1);
bar(X_1,TA);
xlabel('Total Ant Angle')
ylabel('Ant count')
title('Synthetic')
subplot(3,1,2);
bar(X_1,TA);
xlabel('Total Ant Angle')
ylabel('Ant count')
title('Synthetic (logarithmic y-axis);')
set(gca,'YScale','log');
subplot(3,1,3);
text(0.5,0.5,' Mean = 6090.760, Median = 6076.620, Mode = 5945.940, Population size = 5000.000','FontSize',14,'HorizontalAlignment','center');
PL = [ 31,  85,  102,  100,  94,  103,  97,  75,  69,  92,  88,  88,  77,  75,  82,  85,  85,  75,  77,  80,  72,  72,  91,  54,  57,  77,  68,  70,  59,  70,  64,  60,  66,  65,  48,  54,  56,  64,  57,  55,  51,  46,  68,  56,  50,  45,  60,  58,  47,  40,  58,  48,  35,  51,  40,  45,  44,  40,  41,  52,  31,  43,  31,  46,  39,  36,  33,  41,  31,  33,  35,  30,  30,  25,  25,  20,  19,  14,  10,  11,  5,  1,  1,  1,  0,  0,  0,  0,  0,  0,  0,  0,  0,  0,  0,  0,  0,  1,  0,  0,  0,  0,  0,  0,  0,  0,  0,  0,  0,  0,  1,  2,  1,  0,  1,  0,  0,  0,  0,  1,  0,  0,  2,  2,  4,  3,  1,  1,  2,  3,  1,  2,  1,  6,  1,  1,  4,  2,  3,  5,  8,  5,  6,  6,  5,  8,  5,  7,  10,  13,  4,  7,  18,  5,  7,  8,  8,  9,  11,  15,  15,  10,  10,  8,  8,  12,  9,  12,  9,  6,  8,  13,  7,  14,  7,  9,  6,  9,  3,  9,  8,  3,  11,  7,  7,  8,  7,  5,  4,  6,  3,  6,  5,  4,  3,  3,  2,  1,  1,  1];
X_2 = [7.615000, 22.845000, 38.075000, 53.305000, 68.535000, 83.765000, 98.995000, 114.225000, 129.455000, 144.685000, 159.915000, 175.145000, 190.375000, 205.605000, 220.835000, 236.065000, 251.295000, 266.525000, 281.755000, 296.985000, 312.215000, 327.445000, 342.675000, 357.905000, 373.135000, 388.365000, 403.595000, 418.825000, 434.055000, 449.285000, 464.515000, 479.745000, 494.975000, 510.205000, 525.435000, 540.665000, 555.895000, 571.125000, 586.355000, 601.585000, 616.815000, 632.045000, 647.275000, 662.505000, 677.735000, 692.965000, 708.195000, 723.425000, 738.655000, 753.885000, 769.115000, 784.345000, 799.575000, 814.805000, 830.035000, 845.265000, 860.495000, 875.725000, 890.955000, 906.185000, 921.415000, 936.645000, 951.875000, 967.105000, 982.335000, 997.565000, 1012.795000, 1028.025000, 1043.255000, 1058.485000, 1073.715000, 1088.945000, 1104.175000, 1119.405000, 1134.635000, 1149.865000, 1165.095000, 1180.325000, 1195.555000, 1210.785000, 1226.015000, 1241.245000, 1256.475000, 1271.705000, 1286.935000, 1302.165000, 1317.395000, 1332.625000, 1347.855000, 1363.085000, 1378.315000, 1393.545000, 1408.775000, 1424.005000, 1439.235000, 1454.465000, 1469.695000, 1484.925000, 1500.155000, 1515.385000, 1530.615000, 1545.845000, 1561.075000, 1576.305000, 1591.535000, 1606.765000, 1621.995000, 1637.225000, 1652.455000, 1667.685000, 1682.915000, 1698.145000, 1713.375000, 1728.605000, 1743.835000, 1759.065000, 1774.295000, 1789.525000, 1804.755000, 1819.985000, 1835.215000, 1850.445000, 1865.675000, 1880.905000, 1896.135000, 1911.365000, 1926.595000, 1941.825000, 1957.055000, 1972.285000, 1987.515000, 2002.745000, 2017.975000, 2033.205000, 2048.435000, 2063.665000, 2078.895000, 2094.125000, 2109.355000, 2124.585000, 2139.815000, 2155.045000, 2170.275000, 2185.505000, 2200.735000, 2215.965000, 2231.195000, 2246.425000, 2261.655000, 2276.885000, 2292.115000, 2307.345000, 2322.575000, 2337.805000, 2353.035000, 2368.265000, 2383.495000, 2398.725000, 2413.955000, 2429.185000, 2444.415000, 2459.645000, 2474.875000, 2490.105000, 2505.335000, 2520.565000, 2535.795000, 2551.025000, 2566.255000, 2581.485000, 2596.715000, 2611.945000, 2627.175000, 2642.405000, 2657.635000, 2672.865000, 2688.095000, 2703.325000, 2718.555000, 2733.785000, 2749.015000, 2764.245000, 2779.475000, 2794.705000, 2809.935000, 2825.165000, 2840.395000, 2855.625000, 2870.855000, 2886.085000, 2901.315000, 2916.545000, 2931.775000, 2947.005000, 2962.235000, 2977.465000, 2992.695000, 3007.925000, 3023.155000, 3038.385000];
figure;
subplot(3,1,1);
bar(X_2,PL);
xlabel('Ant Path Length')
ylabel('Ant count')
title('Synthetic')
subplot(3,1,2);
bar(X_2,PL);
xlabel('Ant Path Length')
ylabel('Ant count')
title('Synthetic (logarithmic y-axis);')
set(gca,'YScale','log');
subplot(3,1,3);
text(0.5,0.5,' Mean = 680.383, Median = 494.975, Mode = 83.765, Population size = 5000.000','FontSize',14,'HorizontalAlignment','center');
ST = [ 3344,  6672,  9874,  13110,  16208,  19099,  21893,  24743,  27432,  29925,  32373,  34848,  37130,  39407,  41660,  43835,  45935,  47966,  49873,  51723,  53597,  55409,  57199,  58910,  60616,  62282,  63814,  65390,  66882,  68413,  69849,  71297,  72744,  74163,  75624,  76960,  78243,  79613,  80906,  82170,  83455,  84723,  85888,  87076,  88288,  89478,  90589,  91797,  93003,  94169,  95299,  96467,  97582,  98764,  99870,  100992,  102070,  103180,  104280,  105311,  106380,  107439,  108525,  109593,  110652,  111672,  112717,  113713,  114716,  115733,  116737,  117746,  118775,  119822,  120838,  121927,  122976,  124045,  125155,  126190,  127231,  128270,  129341,  130384,  131399,  132452,  133631,  134730,  135857,  136987,  138122,  139285,  140435,  141624,  142840,  144028,  145286,  146538,  147902,  149221,  150648,  151985,  153446,  154861,  156228,  157593,  159003,  160398,  161836,  163209,  164536,  165941,  167432,  168820,  170215,  171626,  172992,  174359,  175738,  177167,  178653,  180099,  181487,  182940,  184397,  185864,  187316,  188840,  190283,  191837,  193357,  194907,  196521,  198197,  199848,  201560,  203220,  204948,  206682,  208456,  210256,  212098,  213888,  215724,  217647,  219646,  221649,  223585,  225634,  227718,  229772,  231957,  234235,  236467,  238817,  241150,  243549,  245976,  248452,  250952,  253537,  256289,  259075,  261942,  264800,  267759,  270775,  273790,  276990,  280225,  283557,  286936,  290494,  294190,  297835,  301647,  305665,  309773,  314041,  318397,  322913,  327685,  332653,  337835,  343185,  348732,  354554,  360706,  367393,  374455,  382010,  390008,  398555,  407873,  417964,  428752,  440129,  452246,  465003,  478667];
X_3 = [0.900000, 1.800000, 2.700000, 3.600000, 4.500000, 5.400000, 6.300000, 7.200000, 8.100000, 9.000000, 9.900000, 10.800000, 11.700000, 12.600000, 13.500000, 14.400000, 15.300000, 16.200000, 17.100000, 18.000000, 18.900000, 19.800000, 20.700000, 21.600000, 22.500000, 23.400000, 24.300000, 25.200000, 26.100000, 27.000000, 27.900000, 28.800000, 29.700000, 30.600000, 31.500000, 32.400000, 33.300000, 34.200000, 35.100000, 36.000000, 36.900000, 37.800000, 38.700000, 39.600000, 40.500000, 41.400000, 42.300000, 43.200000, 44.100000, 45.000000, 45.900000, 46.800000, 47.700000, 48.600000, 49.500000, 50.400000, 51.300000, 52.200000, 53.100000, 54.000000, 54.900000, 55.800000, 56.700000, 57.600000, 58.500000, 59.400000, 60.300000, 61.200000, 62.100000, 63.000000, 63.900000, 64.800000, 65.700000, 66.600000, 67.500000, 68.400000, 69.300000, 70.200000, 71.100000, 72.000000, 72.900000, 73.800000, 74.700000, 75.600000, 76.500000, 77.400000, 78.300000, 79.200000, 80.100000, 81.000000, 81.900000, 82.800000, 83.700000, 84.600000, 85.500000, 86.400000, 87.300000, 88.200000, 89.100000, 90.000000, 90.900000, 91.800000, 92.700000, 93.600000, 94.500000, 95.400000, 96.300000, 97.200000, 98.100000, 99.000000, 99.900000, 100.800000, 101.700000, 102.600000, 103.500000, 104.400000, 105.300000, 106.200000, 107.100000, 108.000000, 108.900000, 109.800000, 110.700000, 111.600000, 112.500000, 113.400000, 114.300000, 115.200000, 116.100000, 117.000000, 117.900000, 118.800000, 119.700000, 120.600000, 121.500000, 122.400000, 123.300000, 124.200000, 125.100000, 126.000000, 126.900000, 127.800000, 128.700000, 129.600000, 130.500000, 131.400000, 132.300000, 133.200000, 134.100000, 135.000000, 135.900000, 136.800000, 137.700000, 138.600000, 139.500000, 140.400000, 141.300000, 142.200000, 143.100000, 144.000000, 144.900000, 145.800000, 146.700000, 147.600000, 148.500000, 149.400000, 150.300000, 151.200000, 152.100000, 153.000000, 153.900000, 154.800000, 155.700000, 156.600000, 157.500000, 158.400000, 159.300000, 160.200000, 161.100000, 162.000000, 162.900000, 163.800000, 164.700000, 165.600000, 166.500000, 167.400000, 168.300000, 169.200000, 170.100000, 171.000000, 171.900000, 172.800000, 173.700000, 174.600000, 175.500000, 176.400000, 177.300000, 178.200000, 179.100000, 180.000000];
figure;
subplot(3,1,1);
bar(X_3,ST);
xlabel('Sharp turns by angle')
ylabel('Ant count')
title('Synthetic')
subplot(3,1,2);
bar(X_3,ST);
xlabel('Sharp turns by angle')
ylabel('Ant count')
title('Synthetic (logarithmic y-axis);')
set(gca,'YScale','log');
subplot(3,1,3);
text(0.5,0.5,' Mean = 7.000, Median = 144.000, Mode = 180.000, Population size = 34069978.000','FontSize',14,'HorizontalAlignment','center');
DA = [ 29997,  12757,  12117,  11377,  10788,  10091,  9318,  8547,  7998,  7555,  7062,  6687,  6152,  5822,  5547,  5350,  5182,  4968,  4772,  4516,  4356,  4268,  4108,  4018,  3812,  3645,  3696,  3558,  3379,  3332,  3235,  3200,  3015,  3016,  2959,  2858,  2867,  2786,  2752,  2585,  2500,  2476,  2427,  2399,  2333,  2350,  2232,  2278,  2185,  2054,  2084,  2049,  1936,  2003,  1999,  1923,  1836,  1790,  1842,  1800,  1774,  1734,  1728,  1660,  1712,  1651,  1676,  1614,  1550,  1520,  1554,  1443,  1524,  1452,  1467,  1457,  1453,  1388,  1446,  1486,  1429,  1379,  1367,  1366,  1411,  1395,  1388,  1491,  1405,  1327,  1373,  1438,  1395,  1410,  1365,  1367,  1415,  1461,  1337,  1427,  1319,  1364,  1252,  1258,  1188,  1216,  1189,  1150,  1163,  1135,  1130,  1127,  1099,  1179,  1053,  1015,  1043,  1071,  1039,  1041,  1035,  1110,  1069,  1049,  1089,  1016,  1047,  1029,  1009,  1004,  1017,  1003,  996,  1045,  1020,  1059,  1068,  1086,  1059,  1069,  1031,  1100,  1110,  1078,  1122,  1106,  1182,  1115,  1168,  1130,  1166,  1206,  1208,  1111,  1190,  1212,  1188,  1165,  1268,  1285,  1264,  1293,  1370,  1283,  1336,  1461,  1419,  1447,  1448,  1436,  1531,  1492,  1576,  1532,  1666,  1706,  1711,  1790,  1812,  1874,  1850,  1907,  2031,  2100,  2175,  2253,  2277,  2282,  2475,  2448,  2493,  2689,  2850,  2794,  2891,  3098,  3236,  3202,  3328,  3344];
X_4 = [0.450000, 1.350000, 2.250000, 3.150000, 4.050000, 4.950000, 5.850000, 6.750000, 7.650000, 8.550000, 9.450000, 10.350000, 11.250000, 12.150000, 13.050000, 13.950000, 14.850000, 15.750000, 16.650000, 17.550000, 18.450000, 19.350000, 20.250000, 21.150000, 22.050000, 22.950000, 23.850000, 24.750000, 25.650000, 26.550000, 27.450000, 28.350000, 29.250000, 30.150000, 31.050000, 31.950000, 32.850000, 33.750000, 34.650000, 35.550000, 36.450000, 37.350000, 38.250000, 39.150000, 40.050000, 40.950000, 41.850000, 42.750000, 43.650000, 44.550000, 45.450000, 46.350000, 47.250000, 48.150000, 49.050000, 49.950000, 50.850000, 51.750000, 52.650000, 53.550000, 54.450000, 55.350000, 56.250000, 57.150000, 58.050000, 58.950000, 59.850000, 60.750000, 61.650000, 62.550000, 63.450000, 64.350000, 65.250000, 66.150000, 67.050000, 67.950000, 68.850000, 69.750000, 70.650000, 71.550000, 72.450000, 73.350000, 74.250000, 75.150000, 76.050000, 76.950000, 77.850000, 78.750000, 79.650000, 80.550000, 81.450000, 82.350000, 83.250000, 84.150000, 85.050000, 85.950000, 86.850000, 87.750000, 88.650000, 89.550000, 90.450000, 91.350000, 92.250000, 93.150000, 94.050000, 94.950000, 95.850000, 96.750000, 97.650000, 98.550000, 99.450000, 100.350000, 101.250000, 102.150000, 103.050000, 103.950000, 104.850000, 105.750000, 106.650000, 107.550000, 108.450000, 109.350000, 110.250000, 111.150000, 112.050000, 112.950000, 113.850000, 114.750000, 115.650000, 116.550000, 117.450000, 118.350000, 119.250000, 120.150000, 121.050000, 121.950000, 122.850000, 123.750000, 124.650000, 125.550000, 126.450000, 127.350000, 128.250000, 129.150000, 130.050000, 130.950000, 131.850000, 132.750000, 133.650000, 134.550000, 135.450000, 136.350000, 137.250000, 138.150000, 139.050000, 139.950000, 140.850000, 141.750000, 142.650000, 143.550000, 144.450000, 145.350000, 146.250000, 147.150000, 148.050000, 148.950000, 149.850000, 150.750000, 151.650000, 152.550000, 153.450000, 154.350000, 155.250000, 156.150000, 157.050000, 157.950000, 158.850000, 159.750000, 160.650000, 161.550000, 162.450000, 163.350000, 164.250000, 165.150000, 166.050000, 166.950000, 167.850000, 168.750000, 169.650000, 170.550000, 171.450000, 172.350000, 173.250000, 174.150000, 175.050000, 175.950000, 176.850000, 177.750000, 178.650000, 179.550000];
figure;
subplot(3,1,1);
bar(X_4,DA);
xlabel('Ant timestamp delta angles')
ylabel('Ant count')
title('Synthetic')
subplot(3,1,2);
bar(X_4,DA);
xlabel('Ant timestamp delta angles')
ylabel('Ant count')
title('Synthetic (logarithmic y-axis);')
set(gca,'YScale','log');
subplot(3,1,3);
text(0.5,0.5,' Mean = 61.508, Median = 37.350, Mode = 0.450, Population size = 495000.000','FontSize',14,'HorizontalAlignment','center');
DD = [ 29852,  21055,  19755,  19170,  18590,  17215,  15417,  14636,  13449,  12717,  12320,  11937,  10754,  9943,  10078,  9852,  9159,  9123,  8515,  8138,  7886,  8126,  7222,  6934,  6354,  7133,  7223,  5589,  7014,  5017,  5965,  6446,  5892,  3559,  6251,  6141,  3913,  4832,  5268,  3740,  4227,  3687,  3486,  5167,  2691,  3884,  2481,  3114,  2730,  2991,  2472,  2716,  2193,  2772,  1141,  2450,  893,  2191,  983,  1271,  1899,  753,  1132,  575,  810,  893,  728,  723,  574,  504,  272,  315,  420,  328,  325,  387,  254,  293,  406,  426,  262,  295,  428,  262,  237,  239,  323,  329,  272,  248,  268,  369,  449,  416,  637,  329,  297,  340,  585,  576,  239,  247,  304,  402,  482,  267,  281,  339,  444,  616,  928,  251,  284,  359,  475,  739,  385,  423,  481,  333,  438,  621,  352,  314,  439,  598,  620,  437,  530,  377,  350,  453,  491,  269,  301,  339,  477,  579,  596,  362,  288,  403,  292,  212,  266,  338,  458,  441,  313,  151,  144,  171,  187,  263,  295,  370,  433,  311,  122,  91,  103,  126,  130,  177,  203,  188,  58,  43,  44,  64,  72,  86,  106,  99,  98,  94,  123,  92,  30,  24,  29,  33,  43,  38,  18,  12,  10,  14,  9,  13,  17,  20,  23,  19,  28,  20,  16,  9,  0,  0];
X_5 = [0.130000, 0.390000, 0.650000, 0.910000, 1.170000, 1.430000, 1.690000, 1.950000, 2.210000, 2.470000, 2.730000, 2.990000, 3.250000, 3.510000, 3.770000, 4.030000, 4.290000, 4.550000, 4.810000, 5.070000, 5.330000, 5.590000, 5.850000, 6.110000, 6.370000, 6.630000, 6.890000, 7.150000, 7.410000, 7.670000, 7.930000, 8.190000, 8.450000, 8.710000, 8.970000, 9.230000, 9.490000, 9.750000, 10.010000, 10.270000, 10.530000, 10.790000, 11.050000, 11.310000, 11.570000, 11.830000, 12.090000, 12.350000, 12.610000, 12.870000, 13.130000, 13.390000, 13.650000, 13.910000, 14.170000, 14.430000, 14.690000, 14.950000, 15.210000, 15.470000, 15.730000, 15.990000, 16.250000, 16.510000, 16.770000, 17.030000, 17.290000, 17.550000, 17.810000, 18.070000, 18.330000, 18.590000, 18.850000, 19.110000, 19.370000, 19.630000, 19.890000, 20.150000, 20.410000, 20.670000, 20.930000, 21.190000, 21.450000, 21.710000, 21.970000, 22.230000, 22.490000, 22.750000, 23.010000, 23.270000, 23.530000, 23.790000, 24.050000, 24.310000, 24.570000, 24.830000, 25.090000, 25.350000, 25.610000, 25.870000, 26.130000, 26.390000, 26.650000, 26.910000, 27.170000, 27.430000, 27.690000, 27.950000, 28.210000, 28.470000, 28.730000, 28.990000, 29.250000, 29.510000, 29.770000, 30.030000, 30.290000, 30.550000, 30.810000, 31.070000, 31.330000, 31.590000, 31.850000, 32.110000, 32.370000, 32.630000, 32.890000, 33.150000, 33.410000, 33.670000, 33.930000, 34.190000, 34.450000, 34.710000, 34.970000, 35.230000, 35.490000, 35.750000, 36.010000, 36.270000, 36.530000, 36.790000, 37.050000, 37.310000, 37.570000, 37.830000, 38.090000, 38.350000, 38.610000, 38.870000, 39.130000, 39.390000, 39.650000, 39.910000, 40.170000, 40.430000, 40.690000, 40.950000, 41.210000, 41.470000, 41.730000, 41.990000, 42.250000, 42.510000, 42.770000, 43.030000, 43.290000, 43.550000, 43.810000, 44.070000, 44.330000, 44.590000, 44.850000, 45.110000, 45.370000, 45.630000, 45.890000, 46.150000, 46.410000, 46.670000, 46.930000, 47.190000, 47.450000, 47.710000, 47.970000, 48.230000, 48.490000, 48.750000, 49.010000, 49.270000, 49.530000, 49.790000, 50.050000, 50.310000, 50.570000, 50.830000, 51.090000, 51.350000, 51.610000, 51.870000];
figure;
subplot(3,1,1);
bar(X_5,DD);
xlabel('Ant timestamp delta distance')
ylabel('Ant count')
title('Synthetic')
subplot(3,1,2);
bar(X_5,DD);
xlabel('Ant timestamp delta distance')
ylabel('Ant count')
title('Synthetic (logarithmic y-axis);')
set(gca,'YScale','log');
subplot(3,1,3);
text(0.5,0.5,' Mean = 6.804, Median = 4.290, Mode = 0.130, Population size = 500000.000','FontSize',14,'HorizontalAlignment','center');
