TA = [ 1,  0,  0,  0,  0,  0,  0,  0,  0,  0,  0,  0,  0,  0,  0,  0,  0,  0,  0,  0,  0,  0,  0,  0,  0,  0,  0,  0,  0,  0,  0,  0,  0,  0,  0,  0,  0,  0,  0,  0,  0,  1,  0,  0,  0,  0,  0,  0,  1,  0,  0,  0,  0,  0,  0,  0,  0,  1,  0,  0,  0,  0,  0,  0,  0,  0,  0,  0,  0,  0,  0,  0,  0,  0,  0,  1,  0,  0,  1,  1,  0,  1,  1,  0,  1,  1,  0,  1,  1,  0,  2,  1,  1,  0,  0,  1,  1,  1,  0,  1,  2,  1,  2,  2,  0,  1,  1,  0,  1,  0,  1,  2,  0,  1,  1,  1,  0,  0,  1,  1,  3,  2,  2,  0,  1,  2,  0,  0,  1,  1,  0,  2,  3,  1,  0,  0,  1,  1,  0,  1,  0,  0,  1,  0,  0,  0,  0,  1,  2,  0,  0,  0,  0,  0,  0,  1,  1,  0,  0,  0,  1,  0,  0,  0,  0,  1,  0,  1,  0,  0,  0,  0,  0,  2,  1,  0,  0,  2,  0,  0,  0,  0,  0,  2,  1,  0,  0,  0,  0,  0,  0,  0,  1,  1,  0,  0,  0,  0,  0,  1];
X_1 = [2294.330000, 2344.990000, 2395.650000, 2446.310000, 2496.970000, 2547.630000, 2598.290000, 2648.950000, 2699.610000, 2750.270000, 2800.930000, 2851.590000, 2902.250000, 2952.910000, 3003.570000, 3054.230000, 3104.890000, 3155.550000, 3206.210000, 3256.870000, 3307.530000, 3358.190000, 3408.850000, 3459.510000, 3510.170000, 3560.830000, 3611.490000, 3662.150000, 3712.810000, 3763.470000, 3814.130000, 3864.790000, 3915.450000, 3966.110000, 4016.770000, 4067.430000, 4118.090000, 4168.750000, 4219.410000, 4270.070000, 4320.730000, 4371.390000, 4422.050000, 4472.710000, 4523.370000, 4574.030000, 4624.690000, 4675.350000, 4726.010000, 4776.670000, 4827.330000, 4877.990000, 4928.650000, 4979.310000, 5029.970000, 5080.630000, 5131.290000, 5181.950000, 5232.610000, 5283.270000, 5333.930000, 5384.590000, 5435.250000, 5485.910000, 5536.570000, 5587.230000, 5637.890000, 5688.550000, 5739.210000, 5789.870000, 5840.530000, 5891.190000, 5941.850000, 5992.510000, 6043.170000, 6093.830000, 6144.490000, 6195.150000, 6245.810000, 6296.470000, 6347.130000, 6397.790000, 6448.450000, 6499.110000, 6549.770000, 6600.430000, 6651.090000, 6701.750000, 6752.410000, 6803.070000, 6853.730000, 6904.390000, 6955.050000, 7005.710000, 7056.370000, 7107.030000, 7157.690000, 7208.350000, 7259.010000, 7309.670000, 7360.330000, 7410.990000, 7461.650000, 7512.310000, 7562.970000, 7613.630000, 7664.290000, 7714.950000, 7765.610000, 7816.270000, 7866.930000, 7917.590000, 7968.250000, 8018.910000, 8069.570000, 8120.230000, 8170.890000, 8221.550000, 8272.210000, 8322.870000, 8373.530000, 8424.190000, 8474.850000, 8525.510000, 8576.170000, 8626.830000, 8677.490000, 8728.150000, 8778.810000, 8829.470000, 8880.130000, 8930.790000, 8981.450000, 9032.110000, 9082.770000, 9133.430000, 9184.090000, 9234.750000, 9285.410000, 9336.070000, 9386.730000, 9437.390000, 9488.050000, 9538.710000, 9589.370000, 9640.030000, 9690.690000, 9741.350000, 9792.010000, 9842.670000, 9893.330000, 9943.990000, 9994.650000, 10045.310000, 10095.970000, 10146.630000, 10197.290000, 10247.950000, 10298.610000, 10349.270000, 10399.930000, 10450.590000, 10501.250000, 10551.910000, 10602.570000, 10653.230000, 10703.890000, 10754.550000, 10805.210000, 10855.870000, 10906.530000, 10957.190000, 11007.850000, 11058.510000, 11109.170000, 11159.830000, 11210.490000, 11261.150000, 11311.810000, 11362.470000, 11413.130000, 11463.790000, 11514.450000, 11565.110000, 11615.770000, 11666.430000, 11717.090000, 11767.750000, 11818.410000, 11869.070000, 11919.730000, 11970.390000, 12021.050000, 12071.710000, 12122.370000, 12173.030000, 12223.690000, 12274.350000, 12325.010000, 12375.670000];
figure;
subplot(3,1,1);
bar(X_1,TA);
xlabel('Total Ant Angle')
ylabel('Ant count')
title('Colony 5&6')
subplot(3,1,2);
bar(X_1,TA);
xlabel('Total Ant Angle')
ylabel('Ant count')
title('Colony 5&6 (logarithmic y-axis);')
set(gca,'YScale','log');
subplot(3,1,3);
text(0.5,0.5,' Mean = 8406.839, Median = 8373.530, Mode = 8373.530, Population size = 80.000','FontSize',14,'HorizontalAlignment','center');
PL = [ 2,  0,  5,  3,  3,  2,  3,  1,  2,  2,  0,  2,  1,  1,  0,  0,  3,  1,  3,  0,  1,  0,  1,  1,  3,  0,  3,  2,  0,  2,  2,  2,  1,  3,  1,  2,  0,  0,  0,  0,  2,  0,  0,  1,  0,  1,  0,  0,  0,  1,  1,  0,  1,  0,  0,  0,  0,  0,  0,  1,  2,  0,  1,  0,  0,  0,  0,  1,  0,  0,  0,  0,  0,  0,  0,  0,  0,  1,  0,  1,  0,  0,  0,  0,  0,  0,  0,  0,  1,  0,  0,  0,  0,  0,  0,  0,  0,  0,  0,  0,  0,  0,  0,  1,  0,  0,  0,  0,  0,  0,  0,  0,  0,  0,  0,  0,  0,  1,  1,  1,  0,  0,  0,  0,  0,  0,  0,  0,  0,  0,  0,  0,  0,  0,  0,  0,  0,  0,  0,  0,  1,  0,  0,  0,  0,  0,  0,  0,  0,  0,  0,  0,  0,  0,  0,  0,  0,  0,  0,  0,  0,  0,  0,  0,  0,  0,  0,  0,  0,  0,  0,  0,  0,  0,  0,  0,  0,  0,  0,  0,  0,  0,  0,  0,  0,  0,  0,  0,  1,  0,  0,  0,  0,  0,  0,  0,  0,  0,  0,  1];
X_2 = [59.605000, 76.815000, 94.025000, 111.235000, 128.445000, 145.655000, 162.865000, 180.075000, 197.285000, 214.495000, 231.705000, 248.915000, 266.125000, 283.335000, 300.545000, 317.755000, 334.965000, 352.175000, 369.385000, 386.595000, 403.805000, 421.015000, 438.225000, 455.435000, 472.645000, 489.855000, 507.065000, 524.275000, 541.485000, 558.695000, 575.905000, 593.115000, 610.325000, 627.535000, 644.745000, 661.955000, 679.165000, 696.375000, 713.585000, 730.795000, 748.005000, 765.215000, 782.425000, 799.635000, 816.845000, 834.055000, 851.265000, 868.475000, 885.685000, 902.895000, 920.105000, 937.315000, 954.525000, 971.735000, 988.945000, 1006.155000, 1023.365000, 1040.575000, 1057.785000, 1074.995000, 1092.205000, 1109.415000, 1126.625000, 1143.835000, 1161.045000, 1178.255000, 1195.465000, 1212.675000, 1229.885000, 1247.095000, 1264.305000, 1281.515000, 1298.725000, 1315.935000, 1333.145000, 1350.355000, 1367.565000, 1384.775000, 1401.985000, 1419.195000, 1436.405000, 1453.615000, 1470.825000, 1488.035000, 1505.245000, 1522.455000, 1539.665000, 1556.875000, 1574.085000, 1591.295000, 1608.505000, 1625.715000, 1642.925000, 1660.135000, 1677.345000, 1694.555000, 1711.765000, 1728.975000, 1746.185000, 1763.395000, 1780.605000, 1797.815000, 1815.025000, 1832.235000, 1849.445000, 1866.655000, 1883.865000, 1901.075000, 1918.285000, 1935.495000, 1952.705000, 1969.915000, 1987.125000, 2004.335000, 2021.545000, 2038.755000, 2055.965000, 2073.175000, 2090.385000, 2107.595000, 2124.805000, 2142.015000, 2159.225000, 2176.435000, 2193.645000, 2210.855000, 2228.065000, 2245.275000, 2262.485000, 2279.695000, 2296.905000, 2314.115000, 2331.325000, 2348.535000, 2365.745000, 2382.955000, 2400.165000, 2417.375000, 2434.585000, 2451.795000, 2469.005000, 2486.215000, 2503.425000, 2520.635000, 2537.845000, 2555.055000, 2572.265000, 2589.475000, 2606.685000, 2623.895000, 2641.105000, 2658.315000, 2675.525000, 2692.735000, 2709.945000, 2727.155000, 2744.365000, 2761.575000, 2778.785000, 2795.995000, 2813.205000, 2830.415000, 2847.625000, 2864.835000, 2882.045000, 2899.255000, 2916.465000, 2933.675000, 2950.885000, 2968.095000, 2985.305000, 3002.515000, 3019.725000, 3036.935000, 3054.145000, 3071.355000, 3088.565000, 3105.775000, 3122.985000, 3140.195000, 3157.405000, 3174.615000, 3191.825000, 3209.035000, 3226.245000, 3243.455000, 3260.665000, 3277.875000, 3295.085000, 3312.295000, 3329.505000, 3346.715000, 3363.925000, 3381.135000, 3398.345000, 3415.555000, 3432.765000, 3449.975000, 3467.185000, 3484.395000];
figure;
subplot(3,1,1);
bar(X_2,PL);
xlabel('Ant Path Length')
ylabel('Ant count')
title('Colony 5&6')
subplot(3,1,2);
bar(X_2,PL);
xlabel('Ant Path Length')
ylabel('Ant count')
title('Colony 5&6 (logarithmic y-axis);')
set(gca,'YScale','log');
subplot(3,1,3);
text(0.5,0.5,' Mean = 663.590, Median = 472.645, Mode = 94.025, Population size = 80.000','FontSize',14,'HorizontalAlignment','center');
ST = [ 128,  181,  233,  289,  346,  402,  452,  509,  557,  600,  636,  688,  730,  769,  806,  849,  896,  950,  991,  1036,  1080,  1122,  1169,  1216,  1259,  1298,  1341,  1384,  1424,  1473,  1515,  1550,  1593,  1637,  1679,  1725,  1766,  1798,  1847,  1874,  1908,  1944,  1983,  2021,  2064,  2086,  2118,  2150,  2186,  2220,  2263,  2302,  2335,  2372,  2403,  2438,  2470,  2505,  2543,  2574,  2604,  2638,  2665,  2699,  2735,  2771,  2815,  2851,  2882,  2911,  2940,  2977,  3011,  3035,  3064,  3093,  3124,  3157,  3186,  3217,  3259,  3285,  3314,  3343,  3378,  3402,  3435,  3471,  3493,  3522,  3539,  3573,  3601,  3628,  3663,  3689,  3725,  3746,  3770,  3802,  3827,  3851,  3877,  3902,  3930,  3958,  3974,  4000,  4028,  4050,  4083,  4113,  4136,  4165,  4187,  4213,  4246,  4274,  4291,  4321,  4349,  4367,  4393,  4421,  4454,  4485,  4508,  4535,  4562,  4591,  4615,  4645,  4674,  4708,  4738,  4767,  4789,  4820,  4856,  4889,  4917,  4949,  4977,  4999,  5024,  5051,  5074,  5092,  5116,  5148,  5174,  5211,  5245,  5274,  5300,  5329,  5352,  5381,  5401,  5429,  5465,  5501,  5540,  5568,  5598,  5639,  5672,  5708,  5751,  5778,  5820,  5856,  5893,  5923,  5964,  5994,  6021,  6062,  6111,  6158,  6185,  6224,  6266,  6303,  6343,  6384,  6419,  6459,  6504,  6537,  6579,  6614,  6649,  6679,  6725,  6753,  6799,  6835,  6876,  6910];
X_3 = [0.900000, 1.800000, 2.700000, 3.600000, 4.500000, 5.400000, 6.300000, 7.200000, 8.100000, 9.000000, 9.900000, 10.800000, 11.700000, 12.600000, 13.500000, 14.400000, 15.300000, 16.200000, 17.100000, 18.000000, 18.900000, 19.800000, 20.700000, 21.600000, 22.500000, 23.400000, 24.300000, 25.200000, 26.100000, 27.000000, 27.900000, 28.800000, 29.700000, 30.600000, 31.500000, 32.400000, 33.300000, 34.200000, 35.100000, 36.000000, 36.900000, 37.800000, 38.700000, 39.600000, 40.500000, 41.400000, 42.300000, 43.200000, 44.100000, 45.000000, 45.900000, 46.800000, 47.700000, 48.600000, 49.500000, 50.400000, 51.300000, 52.200000, 53.100000, 54.000000, 54.900000, 55.800000, 56.700000, 57.600000, 58.500000, 59.400000, 60.300000, 61.200000, 62.100000, 63.000000, 63.900000, 64.800000, 65.700000, 66.600000, 67.500000, 68.400000, 69.300000, 70.200000, 71.100000, 72.000000, 72.900000, 73.800000, 74.700000, 75.600000, 76.500000, 77.400000, 78.300000, 79.200000, 80.100000, 81.000000, 81.900000, 82.800000, 83.700000, 84.600000, 85.500000, 86.400000, 87.300000, 88.200000, 89.100000, 90.000000, 90.900000, 91.800000, 92.700000, 93.600000, 94.500000, 95.400000, 96.300000, 97.200000, 98.100000, 99.000000, 99.900000, 100.800000, 101.700000, 102.600000, 103.500000, 104.400000, 105.300000, 106.200000, 107.100000, 108.000000, 108.900000, 109.800000, 110.700000, 111.600000, 112.500000, 113.400000, 114.300000, 115.200000, 116.100000, 117.000000, 117.900000, 118.800000, 119.700000, 120.600000, 121.500000, 122.400000, 123.300000, 124.200000, 125.100000, 126.000000, 126.900000, 127.800000, 128.700000, 129.600000, 130.500000, 131.400000, 132.300000, 133.200000, 134.100000, 135.000000, 135.900000, 136.800000, 137.700000, 138.600000, 139.500000, 140.400000, 141.300000, 142.200000, 143.100000, 144.000000, 144.900000, 145.800000, 146.700000, 147.600000, 148.500000, 149.400000, 150.300000, 151.200000, 152.100000, 153.000000, 153.900000, 154.800000, 155.700000, 156.600000, 157.500000, 158.400000, 159.300000, 160.200000, 161.100000, 162.000000, 162.900000, 163.800000, 164.700000, 165.600000, 166.500000, 167.400000, 168.300000, 169.200000, 170.100000, 171.000000, 171.900000, 172.800000, 173.700000, 174.600000, 175.500000, 176.400000, 177.300000, 178.200000, 179.100000, 180.000000];
figure;
subplot(3,1,1);
bar(X_3,ST);
xlabel('Sharp turns by angle')
ylabel('Ant count')
title('Colony 5&6')
subplot(3,1,2);
bar(X_3,ST);
xlabel('Sharp turns by angle')
ylabel('Ant count')
title('Colony 5&6 (logarithmic y-axis);')
set(gca,'YScale','log');
subplot(3,1,3);
text(0.5,0.5,' Mean = 127.000, Median = 135.000, Mode = 180.000, Population size = 739796.000','FontSize',14,'HorizontalAlignment','center');
DA = [ 1044,  42,  37,  44,  30,  45,  30,  35,  39,  38,  34,  45,  43,  34,  42,  38,  36,  44,  37,  31,  45,  47,  44,  23,  34,  38,  35,  34,  39,  38,  29,  44,  39,  31,  41,  30,  28,  39,  34,  37,  25,  26,  27,  24,  28,  27,  29,  33,  35,  32,  26,  24,  19,  30,  17,  30,  25,  27,  29,  27,  41,  36,  24,  23,  35,  29,  30,  31,  30,  22,  28,  31,  24,  27,  32,  32,  26,  20,  22,  35,  18,  24,  30,  32,  25,  26,  24,  31,  26,  35,  22,  28,  19,  22,  25,  30,  23,  27,  20,  35,  29,  19,  29,  33,  27,  35,  29,  31,  22,  27,  21,  32,  34,  27,  27,  36,  27,  30,  40,  38,  26,  26,  37,  33,  20,  29,  34,  33,  35,  29,  28,  37,  41,  42,  24,  42,  30,  28,  36,  28,  37,  35,  38,  30,  36,  34,  32,  42,  38,  37,  37,  35,  29,  25,  43,  37,  39,  31,  40,  28,  46,  34,  40,  45,  46,  40,  45,  37,  40,  48,  42,  43,  45,  39,  43,  46,  48,  40,  46,  45,  41,  54,  47,  43,  38,  38,  45,  49,  38,  44,  49,  56,  49,  58,  59,  56,  51,  53,  123,  0];
X_4 = [0.452500, 1.357500, 2.262500, 3.167500, 4.072500, 4.977500, 5.882500, 6.787500, 7.692500, 8.597500, 9.502500, 10.407500, 11.312500, 12.217500, 13.122500, 14.027500, 14.932500, 15.837500, 16.742500, 17.647500, 18.552500, 19.457500, 20.362500, 21.267500, 22.172500, 23.077500, 23.982500, 24.887500, 25.792500, 26.697500, 27.602500, 28.507500, 29.412500, 30.317500, 31.222500, 32.127500, 33.032500, 33.937500, 34.842500, 35.747500, 36.652500, 37.557500, 38.462500, 39.367500, 40.272500, 41.177500, 42.082500, 42.987500, 43.892500, 44.797500, 45.702500, 46.607500, 47.512500, 48.417500, 49.322500, 50.227500, 51.132500, 52.037500, 52.942500, 53.847500, 54.752500, 55.657500, 56.562500, 57.467500, 58.372500, 59.277500, 60.182500, 61.087500, 61.992500, 62.897500, 63.802500, 64.707500, 65.612500, 66.517500, 67.422500, 68.327500, 69.232500, 70.137500, 71.042500, 71.947500, 72.852500, 73.757500, 74.662500, 75.567500, 76.472500, 77.377500, 78.282500, 79.187500, 80.092500, 80.997500, 81.902500, 82.807500, 83.712500, 84.617500, 85.522500, 86.427500, 87.332500, 88.237500, 89.142500, 90.047500, 90.952500, 91.857500, 92.762500, 93.667500, 94.572500, 95.477500, 96.382500, 97.287500, 98.192500, 99.097500, 100.002500, 100.907500, 101.812500, 102.717500, 103.622500, 104.527500, 105.432500, 106.337500, 107.242500, 108.147500, 109.052500, 109.957500, 110.862500, 111.767500, 112.672500, 113.577500, 114.482500, 115.387500, 116.292500, 117.197500, 118.102500, 119.007500, 119.912500, 120.817500, 121.722500, 122.627500, 123.532500, 124.437500, 125.342500, 126.247500, 127.152500, 128.057500, 128.962500, 129.867500, 130.772500, 131.677500, 132.582500, 133.487500, 134.392500, 135.297500, 136.202500, 137.107500, 138.012500, 138.917500, 139.822500, 140.727500, 141.632500, 142.537500, 143.442500, 144.347500, 145.252500, 146.157500, 147.062500, 147.967500, 148.872500, 149.777500, 150.682500, 151.587500, 152.492500, 153.397500, 154.302500, 155.207500, 156.112500, 157.017500, 157.922500, 158.827500, 159.732500, 160.637500, 161.542500, 162.447500, 163.352500, 164.257500, 165.162500, 166.067500, 166.972500, 167.877500, 168.782500, 169.687500, 170.592500, 171.497500, 172.402500, 173.307500, 174.212500, 175.117500, 176.022500, 176.927500, 177.832500, 178.737500, 179.642500, 180.547500];
figure;
subplot(3,1,1);
bar(X_4,DA);
xlabel('Ant timestamp delta angles')
ylabel('Ant count')
title('Colony 5&6')
subplot(3,1,2);
bar(X_4,DA);
xlabel('Ant timestamp delta angles')
ylabel('Ant count')
title('Colony 5&6 (logarithmic y-axis);')
set(gca,'YScale','log');
subplot(3,1,3);
text(0.5,0.5,' Mean = 83.679, Median = 84.618, Mode = 0.453, Population size = 7920.000','FontSize',14,'HorizontalAlignment','center');
DD = [ 4844,  1084,  606,  363,  263,  163,  126,  100,  84,  44,  42,  36,  24,  15,  25,  18,  12,  12,  12,  14,  13,  11,  9,  13,  8,  9,  7,  3,  6,  2,  2,  6,  3,  1,  1,  0,  0,  1,  0,  0,  1,  0,  2,  2,  2,  0,  0,  1,  0,  1,  1,  0,  0,  0,  0,  0,  0,  0,  0,  0,  1,  0,  0,  0,  0,  0,  0,  1,  0,  0,  0,  0,  0,  0,  0,  0,  0,  0,  0,  0,  0,  0,  0,  0,  0,  0,  0,  0,  0,  0,  0,  0,  0,  0,  0,  0,  0,  0,  0,  0,  0,  0,  0,  0,  0,  0,  0,  0,  0,  0,  0,  0,  0,  0,  0,  0,  0,  0,  0,  0,  0,  0,  0,  0,  0,  0,  0,  0,  0,  0,  1,  0,  0,  0,  0,  0,  0,  0,  0,  0,  0,  0,  0,  0,  0,  0,  0,  0,  0,  0,  0,  0,  0,  0,  0,  0,  0,  0,  0,  0,  0,  0,  0,  0,  0,  0,  0,  0,  0,  0,  0,  0,  0,  0,  0,  0,  0,  0,  0,  1,  1,  0,  0,  1,  0,  1,  0,  0,  0,  0,  0,  0,  0,  0,  0,  0,  0,  0,  0,  1];
X_5 = [1.502500, 4.507500, 7.512500, 10.517500, 13.522500, 16.527500, 19.532500, 22.537500, 25.542500, 28.547500, 31.552500, 34.557500, 37.562500, 40.567500, 43.572500, 46.577500, 49.582500, 52.587500, 55.592500, 58.597500, 61.602500, 64.607500, 67.612500, 70.617500, 73.622500, 76.627500, 79.632500, 82.637500, 85.642500, 88.647500, 91.652500, 94.657500, 97.662500, 100.667500, 103.672500, 106.677500, 109.682500, 112.687500, 115.692500, 118.697500, 121.702500, 124.707500, 127.712500, 130.717500, 133.722500, 136.727500, 139.732500, 142.737500, 145.742500, 148.747500, 151.752500, 154.757500, 157.762500, 160.767500, 163.772500, 166.777500, 169.782500, 172.787500, 175.792500, 178.797500, 181.802500, 184.807500, 187.812500, 190.817500, 193.822500, 196.827500, 199.832500, 202.837500, 205.842500, 208.847500, 211.852500, 214.857500, 217.862500, 220.867500, 223.872500, 226.877500, 229.882500, 232.887500, 235.892500, 238.897500, 241.902500, 244.907500, 247.912500, 250.917500, 253.922500, 256.927500, 259.932500, 262.937500, 265.942500, 268.947500, 271.952500, 274.957500, 277.962500, 280.967500, 283.972500, 286.977500, 289.982500, 292.987500, 295.992500, 298.997500, 302.002500, 305.007500, 308.012500, 311.017500, 314.022500, 317.027500, 320.032500, 323.037500, 326.042500, 329.047500, 332.052500, 335.057500, 338.062500, 341.067500, 344.072500, 347.077500, 350.082500, 353.087500, 356.092500, 359.097500, 362.102500, 365.107500, 368.112500, 371.117500, 374.122500, 377.127500, 380.132500, 383.137500, 386.142500, 389.147500, 392.152500, 395.157500, 398.162500, 401.167500, 404.172500, 407.177500, 410.182500, 413.187500, 416.192500, 419.197500, 422.202500, 425.207500, 428.212500, 431.217500, 434.222500, 437.227500, 440.232500, 443.237500, 446.242500, 449.247500, 452.252500, 455.257500, 458.262500, 461.267500, 464.272500, 467.277500, 470.282500, 473.287500, 476.292500, 479.297500, 482.302500, 485.307500, 488.312500, 491.317500, 494.322500, 497.327500, 500.332500, 503.337500, 506.342500, 509.347500, 512.352500, 515.357500, 518.362500, 521.367500, 524.372500, 527.377500, 530.382500, 533.387500, 536.392500, 539.397500, 542.402500, 545.407500, 548.412500, 551.417500, 554.422500, 557.427500, 560.432500, 563.437500, 566.442500, 569.447500, 572.452500, 575.457500, 578.462500, 581.467500, 584.472500, 587.477500, 590.482500, 593.487500, 596.492500, 599.497500];
figure;
subplot(3,1,1);
bar(X_5,DD);
xlabel('Ant timestamp delta distance')
ylabel('Ant count')
title('Colony 5&6')
subplot(3,1,2);
bar(X_5,DD);
xlabel('Ant timestamp delta distance')
ylabel('Ant count')
title('Colony 5&6 (logarithmic y-axis);')
set(gca,'YScale','log');
subplot(3,1,3);
text(0.5,0.5,' Mean = 6.577, Median = 1.503, Mode = 1.503, Population size = 8000.000','FontSize',14,'HorizontalAlignment','center');
