digraph gr {
	ranksep=.75; size = "7.5,7.5";

	 { rank = same; "0";"1";"2";"3";"4";"5";"6";"7";"8";"9";"10";"11";"12";"13";"14";"15";"16";"17";"18";"19";"20";"21";"22";"23";"24";"25";"26";"27";"28";"29"; }
	 { rank = same; "30";"31";"32";"33";"34";"35";"36";"37";"38";"39";"40";"41";"42";"43";"44";"45";"46";"47";"48";"49";"50";"51";"52";"53"; }
	 { rank = same; "54";"55";"56";"57";"58";"59";"60";"61";"62";"63";"64";"65";"66";"67";"68";"69";"70";"71";"72";"73";"74";"75";"76";"77";"78"; }
	 { rank = same; "79";"80";"81";"82";"83";"84";"85";"86";"87";"88";"89";"90";"91";"92";"93";"94";"95";"96";"97";"98";"99";"100";"101";"102";"103"; }
	 { rank = same; "104";"105";"106";"107";"108";"109";"110";"111";"112";"113";"114";"115";"116";"117";"118";"119";"120";"121";"122";"123";"124";"125";"126";"127";"128"; }
	 { rank = same; "129";"130";"131";"132";"133";"134";"135";"136";"137";"138";"139";"140";"141";"142";"143";"144";"145";"146";"147";"148";"149";"150";"151";"152";"153"; }
	 { rank = same; "154";"155";"156";"157";"158";"159";"160";"161";"162";"163";"164";"165";"166";"167";"168";"169";"170";"171";"172";"173";"174";"175";"176";"177"; }
	 { rank = same; "178";"179";"180";"181";"182";"183";"184";"185";"186";"187";"188";"189";"190";"191";"192";"193";"194";"195";"196";"197";"198";"199";"200";"201";"202"; }
	 { rank = same; "203";"204";"205";"206";"207";"208";"209";"210";"211";"212";"213";"214";"215";"216";"217";"218";"219";"220";"221";"222";"223";"224";"225";"226"; }
	 { rank = same; "227";"228";"229";"230";"231";"232";"233";"234";"235";"236";"237";"238";"239";"240";"241";"242";"243";"244";"245";"246";"247";"248";"249";"250";"251"; }
	 { rank = same; "252";"253";"254";"255";"256";"257";"258";"259";"260";"261";"262";"263";"264";"265";"266";"267";"268";"269";"270";"271";"272";"273";"274";"275"; }
	 { rank = same; "276";"277";"278";"279";"280";"281";"282";"283";"284";"285";"286";"287";"288";"289";"290";"291";"292";"293";"294";"295";"296";"297";"298";"299"; }
	 { rank = same; "300";"301";"302";"303";"304";"305";"306";"307";"308";"309";"310";"311";"312";"313";"314";"315";"316";"317";"318";"319";"320";"321";"322";"323"; }
	 { rank = same; "324";"325";"326";"327";"328";"329";"330";"331";"332";"333";"334";"335";"336";"337";"338";"339";"340";"341";"342";"343";"344";"345";"346";"347"; }
	 { rank = same; "348";"349";"350";"351";"352";"353";"354";"355";"356";"357";"358";"359";"360";"361";"362";"363";"364";"365";"366";"367";"368";"369";"370";"371"; }
	 { rank = same; "372";"373";"374";"375";"376";"377";"378";"379";"380";"381";"382";"383";"384";"385";"386";"387";"388";"389";"390";"391";"392";"393";"394";"395";"396"; }
	 { rank = same; "397";"398";"399";"400";"401";"402";"403";"404";"405";"406";"407";"408";"409";"410";"411";"412";"413";"414";"415";"416";"417";"418";"419";"420"; }
	 { rank = same; "421";"422";"423";"424";"425";"426";"427";"428";"429";"430";"431";"432";"433";"434";"435";"436";"437";"438";"439";"440";"441";"442";"443";"444"; }
	 { rank = same; "445";"446";"447";"448";"449";"450";"451";"452";"453";"454";"455";"456";"457";"458";"459";"460";"461";"462";"463";"464";"465";"466";"467";"468"; }
	 { rank = same; "469";"470";"471";"472";"473";"474";"475";"476";"477";"478";"479";"480";"481";"482";"483";"484";"485";"486";"487";"488";"489";"490";"491";"492"; }
	 { rank = same; "493";"494";"495";"496";"497";"498";"499";"500";"501";"502";"503";"504";"505";"506";"507";"508";"509";"510";"511";"512";"513";"514";"515"; }
	 { rank = same; "516";"517";"518";"519";"520";"521";"522";"523";"524";"525";"526";"527";"528";"529";"530";"531";"532";"533";"534";"535";"536";"537";"538"; }
	 { rank = same; "539";"540";"541";"542";"543";"544";"545";"546";"547";"548";"549";"550";"551";"552";"553";"554";"555";"556";"557";"558";"559";"560";"561"; }
	 { rank = same; "562";"563";"564";"565";"566";"567";"568";"569";"570";"571";"572";"573";"574";"575";"576";"577";"578";"579";"580";"581";"582";"583";"584";"585"; }
	 { rank = same; "586";"587";"588";"589";"590";"591";"592";"593";"594";"595";"596";"597";"598";"599";"600";"601";"602";"603";"604";"605";"606";"607";"608";"609"; }
	 { rank = same; "610";"611";"612";"613";"614";"615";"616";"617";"618";"619";"620";"621";"622";"623";"624";"625";"626";"627";"628";"629";"630";"631";"632"; }
	 { rank = same; "633";"634";"635";"636";"637";"638";"639";"640";"641";"642";"643";"644";"645";"646";"647";"648";"649";"650";"651";"652";"653";"654";"655"; }
	 { rank = same; "656";"657";"658";"659";"660";"661";"662";"663";"664";"665";"666";"667";"668";"669";"670";"671";"672";"673";"674";"675";"676";"677";"678";"679"; }
	 { rank = same; "680";"681";"682";"683";"684";"685";"686";"687";"688";"689";"690";"691";"692";"693";"694";"695";"696";"697";"698";"699";"700";"701"; }
	 { rank = same; "702";"703";"704";"705";"706";"707";"708";"709";"710";"711";"712";"713";"714";"715";"716";"717";"718";"719";"720";"721";"722";"723"; }
	 { rank = same; "724";"725";"726";"727";"728";"729";"730";"731";"732";"733";"734";"735";"736";"737";"738";"739";"740";"741";"742";"743";"744"; }
	 { rank = same; "745";"746";"747";"748";"749";"750";"751";"752";"753";"754";"755";"756";"757";"758";"759";"760";"761";"762";"763";"764";"765";"766";"767";"768"; }
	 { rank = same; "769";"770";"771";"772";"773";"774";"775";"776";"777";"778";"779";"780";"781";"782";"783";"784";"785";"786";"787";"788";"789";"790";"791";"792"; }
	 { rank = same; "793";"794";"795";"796";"797";"798";"799";"800";"801";"802";"803";"804";"805";"806";"807";"808";"809";"810";"811";"812";"813";"814";"815"; }
	 { rank = same; "816";"817";"818";"819";"820";"821";"822";"823";"824";"825";"826";"827";"828";"829";"830";"831";"832";"833";"834";"835";"836";"837";"838";"839"; }
	 { rank = same; "840";"841";"842";"843";"844";"845";"846";"847";"848";"849";"850";"851";"852";"853";"854";"855";"856";"857";"858";"859";"860";"861";"862";"863";"864"; }
	 { rank = same; "865";"866";"867";"868";"869";"870";"871";"872";"873";"874";"875";"876";"877";"878";"879";"880";"881";"882";"883";"884";"885";"886";"887";"888";"889"; }
	 { rank = same; "890";"891";"892";"893";"894";"895";"896";"897";"898";"899";"900";"901";"902";"903";"904";"905";"906";"907";"908";"909";"910";"911";"912";"913";"914";"915"; }
	 { rank = same; "916";"917";"918";"919";"920";"921";"922";"923";"924";"925";"926";"927";"928";"929";"930";"931";"932";"933";"934";"935";"936";"937";"938";"939";"940";"941"; }
	 { rank = same; "942";"943";"944";"945";"946";"947";"948";"949";"950";"951";"952";"953";"954";"955";"956";"957";"958";"959";"960";"961";"962";"963";"964";"965";"966"; }
	 { rank = same; "967";"968";"969";"970";"971";"972";"973";"974";"975";"976";"977";"978";"979";"980";"981";"982";"983";"984";"985";"986";"987";"988";"989";"990";"991";"992"; }
	 { rank = same; "993";"994";"995";"996";"997";"998";"999";"1000";"1001";"1002";"1003";"1004";"1005";"1006";"1007";"1008";"1009";"1010";"1011";"1012";"1013";"1014";"1015";"1016";"1017";"1018"; }
	 { rank = same; "1019";"1020";"1021";"1022";"1023";"1024";"1025";"1026";"1027";"1028";"1029";"1030";"1031";"1032";"1033";"1034";"1035";"1036";"1037";"1038";"1039";"1040";"1041";"1042";"1043";"1044"; }
	 { rank = same; "1045";"1046";"1047";"1048";"1049";"1050";"1051";"1052";"1053";"1054";"1055";"1056";"1057";"1058";"1059";"1060";"1061";"1062";"1063";"1064";"1065";"1066";"1067";"1068";"1069"; }
	 { rank = same; "1070";"1071";"1072";"1073";"1074";"1075";"1076";"1077";"1078";"1079";"1080";"1081";"1082";"1083";"1084";"1085";"1086";"1087";"1088";"1089";"1090";"1091";"1092";"1093";"1094"; }
	 { rank = same; "1095";"1096";"1097";"1098";"1099";"1100";"1101";"1102";"1103";"1104";"1105";"1106";"1107";"1108";"1109";"1110";"1111";"1112";"1113";"1114";"1115";"1116";"1117";"1118";"1119"; }
	 { rank = same; "1120";"1121";"1122";"1123";"1124";"1125";"1126";"1127";"1128";"1129";"1130";"1131";"1132";"1133";"1134";"1135";"1136";"1137";"1138";"1139";"1140";"1141";"1142";"1143"; }
	 { rank = same; "1144";"1145";"1146";"1147";"1148";"1149";"1150";"1151";"1152";"1153";"1154";"1155";"1156";"1157";"1158";"1159";"1160";"1161";"1162";"1163";"1164";"1165";"1166"; }
	 { rank = same; "1167";"1168";"1169";"1170";"1171";"1172";"1173";"1174";"1175";"1176";"1177";"1178";"1179";"1180";"1181";"1182";"1183";"1184";"1185";"1186";"1187";"1188";"1189";"1190";"1191";"1192"; }
	 { rank = same; "1193";"1194";"1195";"1196";"1197";"1198";"1199";"1200";"1201";"1202";"1203";"1204";"1205";"1206";"1207";"1208";"1209";"1210";"1211";"1212";"1213";"1214";"1215";"1216";"1217";"1218"; }
	 { rank = same; "1219";"1220";"1221";"1222";"1223";"1224";"1225";"1226";"1227";"1228";"1229";"1230";"1231";"1232";"1233";"1234";"1235";"1236";"1237";"1238";"1239";"1240";"1241";"1242";"1243"; }
	 { rank = same; "1244";"1245";"1246";"1247";"1248";"1249";"1250";"1251";"1252";"1253";"1254";"1255";"1256";"1257";"1258";"1259";"1260";"1261";"1262";"1263";"1264";"1265";"1266";"1267"; }
	 { rank = same; "1268";"1269";"1270";"1271";"1272";"1273";"1274";"1275";"1276";"1277";"1278";"1279";"1280";"1281";"1282";"1283";"1284";"1285";"1286";"1287";"1288";"1289";"1290";"1291"; }
	 { rank = same; "1292";"1293";"1294";"1295";"1296";"1297";"1298";"1299";"1300";"1301";"1302";"1303";"1304";"1305";"1306";"1307";"1308";"1309";"1310";"1311";"1312";"1313";"1314"; }
	 { rank = same; "1315";"1316";"1317";"1318";"1319";"1320";"1321";"1322";"1323";"1324";"1325";"1326";"1327";"1328";"1329";"1330";"1331";"1332";"1333";"1334";"1335";"1336";"1337";"1338";"1339"; }
	 { rank = same; "1340";"1341";"1342";"1343";"1344";"1345";"1346";"1347";"1348";"1349";"1350";"1351";"1352";"1353";"1354";"1355";"1356";"1357";"1358";"1359";"1360";"1361";"1362";"1363";"1364"; }
	 { rank = same; "1365";"1366";"1367";"1368";"1369";"1370";"1371";"1372";"1373";"1374";"1375";"1376";"1377";"1378";"1379";"1380";"1381";"1382";"1383";"1384";"1385";"1386";"1387";"1388";"1389"; }
	 { rank = same; "1390";"1391";"1392";"1393";"1394";"1395";"1396";"1397";"1398";"1399";"1400";"1401";"1402";"1403";"1404";"1405";"1406";"1407";"1408";"1409";"1410";"1411";"1412";"1413"; }
	 { rank = same; "1414";"1415";"1416";"1417";"1418";"1419";"1420";"1421";"1422";"1423";"1424";"1425";"1426";"1427";"1428";"1429";"1430";"1431";"1432";"1433";"1434";"1435";"1436";"1437";"1438"; }
	 { rank = same; "1439";"1440";"1441";"1442";"1443";"1444";"1445";"1446";"1447";"1448";"1449";"1450";"1451";"1452";"1453";"1454";"1455";"1456";"1457";"1458";"1459";"1460";"1461";"1462"; }
	 { rank = same; "1463";"1464";"1465";"1466";"1467";"1468";"1469";"1470";"1471";"1472";"1473";"1474";"1475";"1476";"1477";"1478";"1479";"1480";"1481";"1482";"1483";"1484";"1485";"1486"; }
	 { rank = same; "1487";"1488";"1489";"1490";"1491";"1492";"1493";"1494";"1495";"1496";"1497";"1498";"1499";"1500";"1501";"1502";"1503";"1504";"1505";"1506";"1507"; }
	 { rank = same; "1508";"1509";"1510";"1511";"1512";"1513";"1514";"1515";"1516";"1517";"1518";"1519";"1520";"1521";"1522";"1523";"1524";"1525";"1526";"1527";"1528";"1529";"1530";"1531"; }
	 { rank = same; "1532";"1533";"1534";"1535";"1536";"1537";"1538";"1539";"1540";"1541";"1542";"1543";"1544";"1545";"1546";"1547";"1548";"1549";"1550";"1551";"1552";"1553";"1554";"1555"; }
	 { rank = same; "1556";"1557";"1558";"1559";"1560";"1561";"1562";"1563";"1564";"1565";"1566";"1567";"1568";"1569";"1570";"1571";"1572";"1573";"1574";"1575";"1576";"1577";"1578";"1579"; }
	 { rank = same; "1580";"1581";"1582";"1583";"1584";"1585";"1586";"1587";"1588";"1589";"1590";"1591";"1592";"1593";"1594";"1595";"1596";"1597";"1598";"1599";"1600";"1601";"1602";"1603"; }
	 { rank = same; "1604";"1605";"1606";"1607";"1608";"1609";"1610";"1611";"1612";"1613";"1614";"1615";"1616";"1617";"1618";"1619";"1620";"1621";"1622";"1623";"1624";"1625";"1626";"1627"; }
	 { rank = same; "1628";"1629";"1630";"1631";"1632";"1633";"1634";"1635";"1636";"1637";"1638";"1639";"1640";"1641";"1642";"1643";"1644";"1645";"1646";"1647";"1648";"1649";"1650";"1651";"1652"; }
	 { rank = same; "1653";"1654";"1655";"1656";"1657";"1658";"1659";"1660";"1661";"1662";"1663";"1664";"1665";"1666";"1667";"1668";"1669";"1670";"1671";"1672";"1673";"1674";"1675";"1676";"1677"; }
	 { rank = same; "1678";"1679";"1680";"1681";"1682";"1683";"1684";"1685";"1686";"1687";"1688";"1689";"1690";"1691";"1692";"1693";"1694";"1695";"1696";"1697";"1698";"1699";"1700";"1701";"1702"; }
	 { rank = same; "1703";"1704";"1705";"1706";"1707";"1708";"1709";"1710";"1711";"1712";"1713";"1714";"1715";"1716";"1717";"1718";"1719";"1720";"1721";"1722";"1723";"1724";"1725";"1726"; }
	 { rank = same; "1727";"1728";"1729";"1730";"1731";"1732";"1733";"1734";"1735";"1736";"1737";"1738";"1739";"1740";"1741";"1742";"1743";"1744";"1745";"1746";"1747";"1748";"1749";"1750"; }
	 { rank = same; "1751";"1752";"1753";"1754";"1755";"1756";"1757";"1758";"1759";"1760";"1761";"1762";"1763";"1764";"1765";"1766";"1767";"1768";"1769";"1770";"1771";"1772";"1773"; }
	 { rank = same; "1774";"1775";"1776";"1777";"1778";"1779";"1780";"1781";"1782";"1783";"1784";"1785";"1786";"1787";"1788";"1789";"1790";"1791";"1792";"1793";"1794";"1795";"1796";"1797";"1798"; }
	 { rank = same; "1799";"1800";"1801";"1802";"1803";"1804";"1805";"1806";"1807";"1808";"1809";"1810";"1811";"1812";"1813";"1814";"1815";"1816";"1817";"1818";"1819";"1820";"1821";"1822"; }
	 { rank = same; "1823";"1824";"1825";"1826";"1827";"1828";"1829";"1830";"1831";"1832";"1833";"1834";"1835";"1836";"1837";"1838";"1839";"1840";"1841";"1842";"1843";"1844";"1845"; }
	 { rank = same; "1846";"1847";"1848";"1849";"1850";"1851";"1852";"1853";"1854";"1855";"1856";"1857";"1858";"1859";"1860";"1861";"1862";"1863";"1864";"1865";"1866";"1867";"1868";"1869";"1870"; }
	 { rank = same; "1871";"1872";"1873";"1874";"1875";"1876";"1877";"1878";"1879";"1880";"1881";"1882";"1883";"1884";"1885";"1886";"1887";"1888";"1889";"1890";"1891";"1892";"1893";"1894"; }
	 { rank = same; "1895";"1896";"1897";"1898";"1899";"1900";"1901";"1902";"1903";"1904";"1905";"1906";"1907";"1908";"1909";"1910";"1911";"1912";"1913";"1914";"1915";"1916";"1917";"1918";"1919"; }
	 { rank = same; "1920";"1921";"1922";"1923";"1924";"1925";"1926";"1927";"1928";"1929";"1930";"1931";"1932";"1933";"1934";"1935";"1936";"1937";"1938";"1939";"1940";"1941";"1942";"1943"; }
	 { rank = same; "1944";"1945";"1946";"1947";"1948";"1949";"1950";"1951";"1952";"1953";"1954";"1955";"1956";"1957";"1958";"1959";"1960";"1961";"1962";"1963";"1964";"1965";"1966";"1967"; }
	 { rank = same; "1968";"1969";"1970";"1971";"1972";"1973";"1974";"1975";"1976";"1977";"1978";"1979";"1980";"1981";"1982";"1983";"1984";"1985";"1986";"1987";"1988";"1989";"1990";"1991"; }
	 { rank = same; "1992";"1993";"1994";"1995";"1996";"1997";"1998";"1999";"2000";"2001";"2002";"2003";"2004";"2005";"2006";"2007";"2008";"2009";"2010";"2011";"2012";"2013";"2014";"2015"; }
	 { rank = same; "2016";"2017";"2018";"2019";"2020";"2021";"2022";"2023";"2024";"2025";"2026";"2027";"2028";"2029";"2030";"2031";"2032";"2033";"2034";"2035";"2036";"2037";"2038";"2039";"2040"; }
	 { rank = same; "2041";"2042";"2043";"2044";"2045";"2046";"2047";"2048";"2049";"2050";"2051";"2052";"2053";"2054";"2055";"2056";"2057";"2058";"2059";"2060";"2061";"2062";"2063"; }
	 { rank = same; "2064";"2065";"2066";"2067";"2068";"2069";"2070";"2071";"2072";"2073";"2074";"2075";"2076";"2077";"2078";"2079";"2080";"2081";"2082";"2083";"2084";"2085";"2086";"2087"; }
	 { rank = same; "2088";"2089";"2090";"2091";"2092";"2093";"2094";"2095";"2096";"2097";"2098";"2099";"2100";"2101";"2102";"2103";"2104";"2105";"2106";"2107";"2108";"2109";"2110";"2111"; }
	 { rank = same; "2112";"2113";"2114";"2115";"2116";"2117";"2118";"2119";"2120";"2121";"2122";"2123";"2124";"2125";"2126";"2127";"2128";"2129";"2130";"2131";"2132";"2133";"2134";"2135"; }
	 { rank = same; "2136";"2137";"2138";"2139";"2140";"2141";"2142";"2143";"2144";"2145";"2146";"2147";"2148";"2149";"2150";"2151";"2152";"2153";"2154";"2155";"2156";"2157";"2158";"2159";"2160"; }
	 { rank = same; "2161";"2162";"2163";"2164";"2165";"2166";"2167";"2168";"2169";"2170";"2171";"2172";"2173";"2174";"2175";"2176";"2177";"2178";"2179";"2180";"2181";"2182";"2183";"2184";"2185"; }
	 { rank = same; "2186";"2187";"2188";"2189";"2190";"2191";"2192";"2193";"2194";"2195";"2196";"2197";"2198";"2199";"2200";"2201";"2202";"2203";"2204";"2205";"2206";"2207";"2208";"2209";"2210"; }
	 { rank = same; "2211";"2212";"2213";"2214";"2215";"2216";"2217";"2218";"2219";"2220";"2221";"2222";"2223";"2224";"2225";"2226";"2227";"2228";"2229";"2230";"2231";"2232";"2233"; }
	 { rank = same; "2234";"2235";"2236";"2237";"2238";"2239";"2240";"2241";"2242";"2243";"2244";"2245";"2246";"2247";"2248";"2249";"2250";"2251";"2252";"2253";"2254";"2255";"2256"; }
	 { rank = same; "2257";"2258";"2259";"2260";"2261";"2262";"2263";"2264";"2265";"2266";"2267";"2268";"2269";"2270";"2271";"2272";"2273";"2274";"2275";"2276";"2277";"2278";"2279"; }
	 { rank = same; "2280";"2281";"2282";"2283";"2284";"2285";"2286";"2287";"2288";"2289";"2290";"2291";"2292";"2293";"2294";"2295";"2296";"2297";"2298";"2299";"2300";"2301";"2302";"2303"; }
	 { rank = same; "2304";"2305";"2306";"2307";"2308";"2309";"2310";"2311";"2312";"2313";"2314";"2315";"2316";"2317";"2318";"2319";"2320";"2321";"2322";"2323";"2324";"2325";"2326"; }
	 { rank = same; "2327";"2328";"2329";"2330";"2331";"2332";"2333";"2334";"2335";"2336";"2337";"2338";"2339";"2340";"2341";"2342";"2343";"2344";"2345";"2346";"2347";"2348";"2349";"2350"; }
	 { rank = same; "2351";"2352";"2353";"2354";"2355";"2356";"2357";"2358";"2359";"2360";"2361";"2362";"2363";"2364";"2365";"2366";"2367";"2368";"2369";"2370";"2371";"2372";"2373";"2374"; }
	 { rank = same; "2375";"2376";"2377";"2378";"2379";"2380";"2381";"2382";"2383";"2384";"2385";"2386";"2387";"2388";"2389";"2390";"2391";"2392";"2393";"2394";"2395";"2396";"2397";"2398"; }
	 { rank = same; "2399";"2400";"2401";"2402";"2403";"2404";"2405";"2406";"2407";"2408";"2409";"2410";"2411";"2412";"2413";"2414";"2415";"2416";"2417";"2418";"2419";"2420";"2421";"2422"; }"2398" -> "2401";
"2397" -> "2419";
"2396" -> "2404";
"2395" -> "2408";
"2394" -> "2420";
"2394" -> "2420";
"2393" -> "2405";
"2393" -> "2401";
"2392" -> "2413";
"2391" -> "2418";
"2390" -> "2415";
"2389" -> "2407";
"2388" -> "2417";
"2387" -> "2400";
"2386" -> "2421";
"2386" -> "2403";
"2385" -> "2410";
"2384" -> "2403";
"2383" -> "2402";
"2382" -> "2422";
"2381" -> "2411";
"2381" -> "2405";
"2380" -> "2416";
"2379" -> "2406";
"2378" -> "2414";
"2378" -> "2414";
"2377" -> "2409";
"2376" -> "2412";
"2375" -> "2399";
"2375" -> "2399";
"2374" -> "2393";
"2374" -> "2384";
"2374" -> "2381";
"2374" -> "2381";
"2373" -> "2388";
"2372" -> "2377";
"2371" -> "2392";
"2370" -> "2382";
"2369" -> "2390";
"2368" -> "2385";
"2367" -> "2379";
"2366" -> "2394";
"2365" -> "2376";
"2364" -> "2380";
"2363" -> "2386";
"2362" -> "2389";
"2361" -> "2383";
"2360" -> "2398";
"2360" -> "2393";
"2359" -> "2391";
"2358" -> "2395";
"2357" -> "2396";
"2356" -> "2375";
"2356" -> "2375";
"2355" -> "2387";
"2354" -> "2386";
"2353" -> "2397";
"2352" -> "2394";
"2351" -> "2378";
"2351" -> "2378";
"2350" -> "2354";
"2349" -> "2369";
"2348" -> "2371";
"2347" -> "2359";
"2346" -> "2355";
"2345" -> "2368";
"2344" -> "2356";
"2344" -> "2356";
"2343" -> "2353";
"2342" -> "2372";
"2341" -> "2352";
"2340" -> "2367";
"2339" -> "2370";
"2338" -> "2351";
"2338" -> "2351";
"2337" -> "2374";
"2337" -> "2374";
"2337" -> "2374";
"2336" -> "2362";
"2335" -> "2360";
"2335" -> "2360";
"2334" -> "2365";
"2333" -> "2364";
"2332" -> "2366";
"2331" -> "2373";
"2331" -> "2358";
"2330" -> "2363";
"2329" -> "2374";
"2328" -> "2357";
"2327" -> "2361";
"2326" -> "2348";
"2325" -> "2327";
"2324" -> "2336";
"2323" -> "2344";
"2323" -> "2344";
"2322" -> "2328";
"2321" -> "2333";
"2320" -> "2350";
"2319" -> "2334";
"2318" -> "2340";
"2317" -> "2337";
"2317" -> "2337";
"2316" -> "2346";
"2315" -> "2329";
"2314" -> "2345";
"2314" -> "2342";
"2313" -> "2339";
"2312" -> "2338";
"2312" -> "2338";
"2311" -> "2349";
"2310" -> "2347";
"2309" -> "2343";
"2308" -> "2332";
"2307" -> "2337";
"2307" -> "2335";
"2307" -> "2335";
"2306" -> "2331";
"2306" -> "2331";
"2305" -> "2341";
"2304" -> "2330";
"2303" -> "2309";
"2302" -> "2314";
"2301" -> "2306";
"2300" -> "2316";
"2299" -> "2323";
"2299" -> "2313";
"2298" -> "2314";
"2297" -> "2310";
"2296" -> "2305";
"2295" -> "2326";
"2294" -> "2323";
"2293" -> "2319";
"2292" -> "2311";
"2291" -> "2307";
"2291" -> "2307";
"2290" -> "2325";
"2289" -> "2312";
"2289" -> "2312";
"2288" -> "2320";
"2287" -> "2321";
"2286" -> "2306";
"2285" -> "2304";
"2284" -> "2322";
"2283" -> "2318";
"2282" -> "2308";
"2282" -> "2307";
"2281" -> "2324";
"2280" -> "2317";
"2280" -> "2317";
"2280" -> "2315";
"2279" -> "2301";
"2279" -> "2296";
"2278" -> "2291";
"2278" -> "2282";
"2277" -> "2280";
"2277" -> "2280";
"2277" -> "2280";
"2276" -> "2288";
"2275" -> "2281";
"2274" -> "2290";
"2273" -> "2300";
"2272" -> "2282";
"2271" -> "2286";
"2270" -> "2287";
"2269" -> "2298";
"2268" -> "2294";
"2267" -> "2289";
"2267" -> "2289";
"2266" -> "2302";
"2265" -> "2292";
"2265" -> "2284";
"2264" -> "2295";
"2263" -> "2299";
"2263" -> "2299";
"2262" -> "2283";
"2261" -> "2293";
"2260" -> "2303";
"2259" -> "2285";
"2258" -> "2291";
"2257" -> "2297";
"2256" -> "2275";
"2255" -> "2261";
"2254" -> "2259";
"2253" -> "2279";
"2252" -> "2270";
"2251" -> "2262";
"2250" -> "2264";
"2249" -> "2268";
"2248" -> "2266";
"2247" -> "2277";
"2247" -> "2277";
"2247" -> "2277";
"2246" -> "2257";
"2245" -> "2278";
"2244" -> "2265";
"2243" -> "2279";
"2243" -> "2274";
"2242" -> "2276";
"2241" -> "2269";
"2240" -> "2260";
"2239" -> "2265";
"2238" -> "2272";
"2237" -> "2273";
"2237" -> "2271";
"2236" -> "2267";
"2236" -> "2267";
"2235" -> "2278";
"2235" -> "2258";
"2234" -> "2263";
"2234" -> "2263";
"2233" -> "2246";
"2232" -> "2238";
"2231" -> "2256";
"2230" -> "2241";
"2229" -> "2242";
"2228" -> "2251";
"2227" -> "2254";
"2226" -> "2245";
"2226" -> "2240";
"2225" -> "2236";
"2225" -> "2236";
"2224" -> "2252";
"2223" -> "2253";
"2223" -> "2243";
"2222" -> "2250";
"2221" -> "2248";
"2220" -> "2235";
"2220" -> "2235";
"2219" -> "2255";
"2218" -> "2239";
"2217" -> "2249";
"2216" -> "2237";
"2215" -> "2247";
"2215" -> "2247";
"2215" -> "2247";
"2214" -> "2243";
"2213" -> "2234";
"2213" -> "2234";
"2212" -> "2237";
"2211" -> "2244";
"2210" -> "2232";
"2209" -> "2233";
"2208" -> "2216";
"2207" -> "2230";
"2206" -> "2228";
"2205" -> "2212";
"2204" -> "2220";
"2204" -> "2220";
"2203" -> "2213";
"2203" -> "2213";
"2202" -> "2225";
"2202" -> "2225";
"2201" -> "2223";
"2200" -> "2218";
"2199" -> "2211";
"2198" -> "2223";
"2197" -> "2229";
"2196" -> "2215";
"2195" -> "2231";
"2194" -> "2226";
"2194" -> "2226";
"2193" -> "2222";
"2192" -> "2215";
"2192" -> "2215";
"2191" -> "2227";
"2190" -> "2214";
"2189" -> "2219";
"2188" -> "2224";
"2187" -> "2217";
"2186" -> "2221";
"2185" -> "2204";
"2185" -> "2204";
"2184" -> "2207";
"2183" -> "2198";
"2182" -> "2194";
"2181" -> "2193";
"2180" -> "2195";
"2179" -> "2209";
"2178" -> "2200";
"2177" -> "2202";
"2177" -> "2202";
"2176" -> "2186";
"2175" -> "2188";
"2174" -> "2189";
"2173" -> "2197";
"2172" -> "2190";
"2171" -> "2203";
"2171" -> "2203";
"2170" -> "2210";
"2169" -> "2206";
"2168" -> "2205";
"2167" -> "2187";
"2166" -> "2201";
"2165" -> "2208";
"2164" -> "2194";
"2163" -> "2196";
"2163" -> "2192";
"2163" -> "2192";
"2162" -> "2199";
"2161" -> "2191";
"2160" -> "2167";
"2159" -> "2165";
"2158" -> "2164";
"2157" -> "2185";
"2157" -> "2185";
"2156" -> "2178";
"2155" -> "2179";
"2154" -> "2176";
"2153" -> "2166";
"2152" -> "2177";
"2152" -> "2177";
"2151" -> "2171";
"2151" -> "2171";
"2150" -> "2163";
"2150" -> "2163";
"2150" -> "2163";
"2149" -> "2175";
"2148" -> "2181";
"2147" -> "2168";
"2146" -> "2184";
"2145" -> "2162";
"2144" -> "2161";
"2143" -> "2182";
"2142" -> "2180";
"2141" -> "2173";
"2140" -> "2183";
"2139" -> "2172";
"2138" -> "2174";
"2137" -> "2169";
"2136" -> "2170";
"2135" -> "2139";
"2134" -> "2160";
"2133" -> "2148";
"2132" -> "2136";
"2131" -> "2157";
"2131" -> "2157";
"2130" -> "2137";
"2129" -> "2143";
"2128" -> "2152";
"2128" -> "2152";
"2127" -> "2155";
"2126" -> "2150";
"2125" -> "2159";
"2124" -> "2154";
"2123" -> "2150";
"2123" -> "2150";
"2122" -> "2153";
"2122" -> "2140";
"2121" -> "2146";
"2120" -> "2144";
"2119" -> "2138";
"2118" -> "2156";
"2117" -> "2147";
"2116" -> "2141";
"2115" -> "2149";
"2114" -> "2145";
"2113" -> "2142";
"2112" -> "2158";
"2112" -> "2151";
"2112" -> "2151";
"2111" -> "2124";
"2111" -> "2121";
"2110" -> "2114";
"2109" -> "2125";
"2108" -> "2127";
"2107" -> "2113";
"2106" -> "2126";
"2106" -> "2123";
"2106" -> "2123";
"2105" -> "2135";
"2104" -> "2117";
"2103" -> "2131";
"2103" -> "2131";
"2102" -> "2133";
"2101" -> "2122";
"2101" -> "2122";
"2100" -> "2118";
"2099" -> "2129";
"2098" -> "2112";
"2097" -> "2130";
"2096" -> "2120";
"2095" -> "2132";
"2094" -> "2112";
"2093" -> "2134";
"2092" -> "2128";
"2092" -> "2128";
"2091" -> "2115";
"2090" -> "2116";
"2089" -> "2119";
"2088" -> "2112";
"2087" -> "2103";
"2086" -> "2111";
"2085" -> "2093";
"2084" -> "2092";
"2084" -> "2092";
"2083" -> "2106";
"2082" -> "2103";
"2081" -> "2090";
"2080" -> "2101";
"2080" -> "2095";
"2079" -> "2100";
"2078" -> "2096";
"2077" -> "2104";
"2076" -> "2110";
"2075" -> "2098";
"2075" -> "2088";
"2074" -> "2099";
"2073" -> "2108";
"2073" -> "2089";
"2072" -> "2109";
"2071" -> "2105";
"2071" -> "2101";
"2070" -> "2097";
"2069" -> "2094";
"2068" -> "2107";
"2067" -> "2111";
"2066" -> "2091";
"2065" -> "2102";
"2064" -> "2106";
"2064" -> "2106";
"2063" -> "2078";
"2062" -> "2083";
"2062" -> "2064";
"2062" -> "2064";
"2061" -> "2080";
"2061" -> "2074";
"2060" -> "2080";
"2060" -> "2070";
"2059" -> "2066";
"2058" -> "2071";
"2057" -> "2085";
"2056" -> "2084";
"2056" -> "2084";
"2055" -> "2073";
"2054" -> "2081";
"2053" -> "2069";
"2052" -> "2086";
"2051" -> "2075";
"2051" -> "2075";
"2050" -> "2076";
"2049" -> "2073";
"2048" -> "2065";
"2047" -> "2079";
"2046" -> "2072";
"2045" -> "2071";
"2044" -> "2068";
"2043" -> "2077";
"2042" -> "2087";
"2042" -> "2082";
"2041" -> "2067";
"2040" -> "2048";
"2039" -> "2055";
"2038" -> "2042";
"2038" -> "2042";
"2037" -> "2056";
"2037" -> "2056";
"2036" -> "2062";
"2036" -> "2062";
"2035" -> "2059";
"2034" -> "2045";
"2033" -> "2058";
"2032" -> "2054";
"2031" -> "2050";
"2030" -> "2062";
"2029" -> "2047";
"2028" -> "2043";
"2027" -> "2060";
"2027" -> "2060";
"2026" -> "2051";
"2026" -> "2051";
"2025" -> "2052";
"2024" -> "2049";
"2023" -> "2044";
"2022" -> "2053";
"2021" -> "2057";
"2020" -> "2063";
"2019" -> "2061";
"2018" -> "2041";
"2017" -> "2061";
"2016" -> "2046";
"2015" -> "2029";
"2014" -> "2020";
"2013" -> "2022";
"2012" -> "2019";
"2011" -> "2035";
"2010" -> "2034";
"2009" -> "2026";
"2009" -> "2026";
"2008" -> "2028";
"2007" -> "2036";
"2007" -> "2036";
"2007" -> "2030";
"2006" -> "2018";
"2005" -> "2033";
"2004" -> "2027";
"2003" -> "2040";
"2002" -> "2038";
"2002" -> "2038";
"2002" -> "2017";
"2001" -> "2025";
"2000" -> "2027";
"1999" -> "2039";
"1998" -> "2023";
"1997" -> "2032";
"1996" -> "2016";
"1995" -> "2024";
"1994" -> "2021";
"1993" -> "2037";
"1993" -> "2037";
"1992" -> "2031";
"1991" -> "2010";
"1990" -> "1992";
"1989" -> "2001";
"1988" -> "2007";
"1988" -> "2007";
"1988" -> "2007";
"1987" -> "2006";
"1986" -> "2009";
"1985" -> "2005";
"1985" -> "2000";
"1984" -> "1998";
"1983" -> "2014";
"1982" -> "2015";
"1981" -> "1997";
"1980" -> "2011";
"1979" -> "2002";
"1979" -> "2002";
"1979" -> "2002";
"1978" -> "2013";
"1977" -> "2009";
"1976" -> "1996";
"1975" -> "2003";
"1974" -> "2012";
"1973" -> "1995";
"1972" -> "2008";
"1971" -> "2004";
"1970" -> "1993";
"1970" -> "1993";
"1969" -> "1999";
"1968" -> "1994";
"1967" -> "1975";
"1966" -> "1988";
"1966" -> "1988";
"1966" -> "1988";
"1966" -> "1985";
"1965" -> "1991";
"1964" -> "1987";
"1963" -> "1971";
"1962" -> "1989";
"1961" -> "1978";
"1960" -> "1979";
"1960" -> "1979";
"1960" -> "1979";
"1959" -> "1970";
"1959" -> "1970";
"1958" -> "1981";
"1957" -> "1985";
"1956" -> "1974";
"1955" -> "1986";
"1954" -> "1984";
"1953" -> "1972";
"1952" -> "1968";
"1951" -> "1983";
"1950" -> "1976";
"1949" -> "1990";
"1948" -> "1973";
"1947" -> "1969";
"1946" -> "1982";
"1945" -> "1977";
"1944" -> "1980";
"1943" -> "1947";
"1942" -> "1949";
"1941" -> "1964";
"1941" -> "1944";
"1940" -> "1948";
"1939" -> "1950";
"1938" -> "1945";
"1937" -> "1963";
"1936" -> "1946";
"1935" -> "1952";
"1934" -> "1965";
"1933" -> "1954";
"1932" -> "1953";
"1931" -> "1962";
"1930" -> "1955";
"1929" -> "1966";
"1928" -> "1957";
"1927" -> "1961";
"1926" -> "1966";
"1926" -> "1966";
"1926" -> "1966";
"1925" -> "1959";
"1925" -> "1959";
"1924" -> "1960";
"1924" -> "1960";
"1924" -> "1960";
"1923" -> "1956";
"1922" -> "1967";
"1921" -> "1951";
"1920" -> "1958";
"1919" -> "1934";
"1918" -> "1926";
"1918" -> "1926";
"1918" -> "1926";
"1918" -> "1924";
"1917" -> "1941";
"1916" -> "1927";
"1915" -> "1935";
"1914" -> "1928";
"1913" -> "1939";
"1912" -> "1932";
"1911" -> "1931";
"1910" -> "1922";
"1909" -> "1930";
"1908" -> "1921";
"1907" -> "1924";
"1907" -> "1924";
"1906" -> "1941";
"1905" -> "1920";
"1904" -> "1925";
"1904" -> "1925";
"1903" -> "1940";
"1902" -> "1937";
"1901" -> "1936";
"1900" -> "1942";
"1899" -> "1943";
"1898" -> "1938";
"1897" -> "1933";
"1896" -> "1929";
"1895" -> "1923";
"1894" -> "1904";
"1894" -> "1904";
"1893" -> "1902";
"1892" -> "1917";
"1891" -> "1919";
"1890" -> "1900";
"1889" -> "1897";
"1888" -> "1895";
"1887" -> "1910";
"1886" -> "1912";
"1885" -> "1915";
"1884" -> "1899";
"1883" -> "1913";
"1882" -> "1909";
"1881" -> "1901";
"1880" -> "1907";
"1880" -> "1907";
"1879" -> "1906";
"1878" -> "1908";
"1877" -> "1903";
"1876" -> "1916";
"1876" -> "1898";
"1875" -> "1914";
"1874" -> "1905";
"1873" -> "1918";
"1873" -> "1918";
"1873" -> "1918";
"1873" -> "1896";
"1872" -> "1918";
"1871" -> "1911";
"1870" -> "1874";
"1869" -> "1879";
"1868" -> "1883";
"1867" -> "1887";
"1866" -> "1894";
"1866" -> "1894";
"1865" -> "1889";
"1864" -> "1880";
"1864" -> "1872";
"1863" -> "1888";
"1862" -> "1893";
"1861" -> "1891";
"1860" -> "1873";
"1859" -> "1882";
"1858" -> "1892";
"1857" -> "1886";
"1856" -> "1885";
"1855" -> "1878";
"1854" -> "1873";
"1854" -> "1873";
"1854" -> "1873";
"1853" -> "1881";
"1852" -> "1880";
"1851" -> "1871";
"1850" -> "1890";
"1849" -> "1877";
"1848" -> "1884";
"1847" -> "1875";
"1846" -> "1876";
"1846" -> "1876";
"1845" -> "1866";
"1845" -> "1866";
"1844" -> "1865";
"1843" -> "1859";
"1842" -> "1857";
"1841" -> "1849";
"1840" -> "1850";
"1839" -> "1861";
"1839" -> "1847";
"1838" -> "1853";
"1837" -> "1862";
"1836" -> "1846";
"1835" -> "1867";
"1835" -> "1855";
"1834" -> "1852";
"1833" -> "1860";
"1833" -> "1854";
"1833" -> "1854";
"1833" -> "1854";
"1832" -> "1869";
"1831" -> "1858";
"1830" -> "1864";
"1830" -> "1864";
"1829" -> "1863";
"1828" -> "1851";
"1827" -> "1856";
"1826" -> "1870";
"1825" -> "1868";
"1824" -> "1846";
"1823" -> "1848";
"1822" -> "1839";
"1821" -> "1838";
"1820" -> "1826";
"1819" -> "1841";
"1818" -> "1825";
"1817" -> "1831";
"1816" -> "1829";
"1815" -> "1833";
"1815" -> "1833";
"1815" -> "1833";
"1814" -> "1836";
"1814" -> "1827";
"1813" -> "1832";
"1812" -> "1823";
"1811" -> "1845";
"1811" -> "1845";
"1810" -> "1830";
"1810" -> "1830";
"1809" -> "1824";
"1808" -> "1828";
"1807" -> "1834";
"1806" -> "1835";
"1805" -> "1842";
"1804" -> "1835";
"1803" -> "1833";
"1802" -> "1844";
"1801" -> "1840";
"1800" -> "1843";
"1800" -> "1839";
"1799" -> "1837";
"1798" -> "1812";
"1797" -> "1818";
"1796" -> "1804";
"1795" -> "1801";
"1794" -> "1800";
"1793" -> "1809";
"1792" -> "1820";
"1792" -> "1802";
"1791" -> "1817";
"1790" -> "1822";
"1789" -> "1808";
"1788" -> "1814";
"1787" -> "1805";
"1786" -> "1800";
"1786" -> "1799";
"1785" -> "1811";
"1785" -> "1811";
"1784" -> "1819";
"1783" -> "1815";
"1783" -> "1815";
"1782" -> "1807";
"1781" -> "1821";
"1780" -> "1814";
"1779" -> "1816";
"1778" -> "1806";
"1777" -> "1810";
"1777" -> "1810";
"1776" -> "1803";
"1775" -> "1815";
"1774" -> "1813";
"1773" -> "1794";
"1773" -> "1790";
"1773" -> "1786";
"1772" -> "1781";
"1771" -> "1792";
"1771" -> "1792";
"1770" -> "1780";
"1769" -> "1784";
"1768" -> "1775";
"1767" -> "1783";
"1767" -> "1783";
"1766" -> "1789";
"1765" -> "1791";
"1764" -> "1785";
"1764" -> "1785";
"1763" -> "1779";
"1762" -> "1776";
"1761" -> "1798";
"1760" -> "1787";
"1759" -> "1774";
"1758" -> "1777";
"1758" -> "1777";
"1757" -> "1796";
"1757" -> "1778";
"1756" -> "1782";
"1755" -> "1793";
"1754" -> "1786";
"1753" -> "1797";
"1752" -> "1795";
"1751" -> "1788";
"1750" -> "1771";
"1749" -> "1773";
"1749" -> "1773";
"1749" -> "1773";
"1748" -> "1757";
"1747" -> "1757";
"1746" -> "1768";
"1745" -> "1753";
"1744" -> "1763";
"1743" -> "1766";
"1742" -> "1759";
"1741" -> "1752";
"1740" -> "1770";
"1739" -> "1769";
"1738" -> "1764";
"1738" -> "1764";
"1737" -> "1771";
"1736" -> "1765";
"1735" -> "1758";
"1735" -> "1758";
"1734" -> "1751";
"1733" -> "1756";
"1732" -> "1772";
"1731" -> "1754";
"1730" -> "1767";
"1730" -> "1767";
"1730" -> "1762";
"1729" -> "1755";
"1728" -> "1760";
"1727" -> "1761";
"1726" -> "1738";
"1726" -> "1738";
"1725" -> "1737";
"1724" -> "1747";
"1723" -> "1729";
"1722" -> "1749";
"1722" -> "1749";
"1722" -> "1749";
"1721" -> "1735";
"1721" -> "1735";
"1720" -> "1731";
"1719" -> "1741";
"1718" -> "1734";
"1718" -> "1733";
"1717" -> "1730";
"1717" -> "1730";
"1716" -> "1746";
"1715" -> "1750";
"1714" -> "1739";
"1713" -> "1744";
"1712" -> "1740";
"1711" -> "1748";
"1710" -> "1742";
"1709" -> "1745";
"1708" -> "1728";
"1707" -> "1730";
"1706" -> "1727";
"1705" -> "1732";
"1704" -> "1736";
"1703" -> "1743";
"1702" -> "1723";
"1701" -> "1719";
"1700" -> "1707";
"1699" -> "1709";
"1698" -> "1706";
"1697" -> "1710";
"1696" -> "1722";
"1696" -> "1716";
"1695" -> "1704";
"1694" -> "1726";
"1694" -> "1726";
"1693" -> "1724";
"1692" -> "1721";
"1692" -> "1721";
"1691" -> "1720";
"1690" -> "1708";
"1689" -> "1703";
"1688" -> "1715";
"1687" -> "1713";
"1686" -> "1718";
"1685" -> "1714";
"1684" -> "1725";
"1683" -> "1717";
"1683" -> "1717";
"1682" -> "1712";
"1681" -> "1705";
"1680" -> "1711";
"1679" -> "1722";
"1679" -> "1722";
"1678" -> "1718";
"1677" -> "1683";
"1677" -> "1683";
"1676" -> "1686";
"1675" -> "1699";
"1674" -> "1700";
"1673" -> "1687";
"1672" -> "1691";
"1671" -> "1678";
"1670" -> "1696";
"1669" -> "1695";
"1668" -> "1693";
"1667" -> "1680";
"1666" -> "1682";
"1665" -> "1694";
"1665" -> "1694";
"1664" -> "1701";
"1663" -> "1690";
"1662" -> "1684";
"1661" -> "1696";
"1661" -> "1679";
"1661" -> "1679";
"1660" -> "1681";
"1659" -> "1688";
"1658" -> "1685";
"1657" -> "1689";
"1656" -> "1702";
"1655" -> "1698";
"1654" -> "1692";
"1654" -> "1692";
"1653" -> "1697";
"1652" -> "1664";
"1651" -> "1676";
"1650" -> "1661";
"1650" -> "1661";
"1649" -> "1671";
"1648" -> "1662";
"1647" -> "1660";
"1646" -> "1665";
"1646" -> "1665";
"1645" -> "1667";
"1644" -> "1666";
"1643" -> "1672";
"1642" -> "1670";
"1641" -> "1661";
"1640" -> "1675";
"1639" -> "1673";
"1638" -> "1656";
"1637" -> "1658";
"1636" -> "1657";
"1635" -> "1655";
"1634" -> "1659";
"1633" -> "1669";
"1633" -> "1653";
"1632" -> "1663";
"1631" -> "1677";
"1631" -> "1677";
"1630" -> "1668";
"1629" -> "1654";
"1629" -> "1654";
"1628" -> "1674";
"1627" -> "1650";
"1626" -> "1645";
"1625" -> "1629";
"1625" -> "1629";
"1624" -> "1630";
"1623" -> "1648";
"1622" -> "1650";
"1621" -> "1634";
"1620" -> "1638";
"1619" -> "1639";
"1618" -> "1635";
"1617" -> "1651";
"1616" -> "1643";
"1615" -> "1632";
"1614" -> "1646";
"1614" -> "1646";
"1613" -> "1637";
"1612" -> "1640";
"1611" -> "1652";
"1610" -> "1642";
"1609" -> "1649";
"1608" -> "1636";
"1608" -> "1633";
"1607" -> "1644";
"1607" -> "1641";
"1606" -> "1631";
"1606" -> "1631";
"1606" -> "1628";
"1605" -> "1633";
"1604" -> "1647";
"1603" -> "1625";
"1602" -> "1619";
"1601" -> "1625";
"1600" -> "1614";
"1600" -> "1614";
"1599" -> "1615";
"1598" -> "1627";
"1597" -> "1606";
"1597" -> "1606";
"1596" -> "1618";
"1595" -> "1622";
"1594" -> "1613";
"1593" -> "1621";
"1592" -> "1607";
"1591" -> "1606";
"1590" -> "1608";
"1589" -> "1624";
"1588" -> "1623";
"1587" -> "1604";
"1586" -> "1616";
"1585" -> "1626";
"1584" -> "1608";
"1584" -> "1605";
"1583" -> "1610";
"1582" -> "1611";
"1581" -> "1620";
"1581" -> "1617";
"1581" -> "1609";
"1581" -> "1607";
"1580" -> "1612";
"1579" -> "1598";
"1579" -> "1595";
"1578" -> "1596";
"1577" -> "1590";
"1577" -> "1584";
"1576" -> "1603";
"1576" -> "1597";
"1575" -> "1581";
"1574" -> "1587";
"1573" -> "1589";
"1572" -> "1597";
"1572" -> "1591";
"1571" -> "1602";
"1570" -> "1599";
"1569" -> "1592";
"1568" -> "1600";
"1568" -> "1600";
"1567" -> "1586";
"1566" -> "1594";
"1565" -> "1583";
"1564" -> "1584";
"1563" -> "1582";
"1562" -> "1581";
"1561" -> "1581";
"1561" -> "1581";
"1560" -> "1593";
"1559" -> "1580";
"1558" -> "1588";
"1557" -> "1585";
"1556" -> "1601";
"1555" -> "1566";
"1554" -> "1567";
"1553" -> "1557";
"1552" -> "1562";
"1551" -> "1579";
"1550" -> "1579";
"1549" -> "1571";
"1548" -> "1575";
"1548" -> "1561";
"1548" -> "1561";
"1547" -> "1572";
"1547" -> "1572";
"1546" -> "1578";
"1545" -> "1556";
"1544" -> "1577";
"1543" -> "1573";
"1542" -> "1560";
"1541" -> "1569";
"1540" -> "1558";
"1539" -> "1559";
"1538" -> "1565";
"1537" -> "1576";
"1537" -> "1576";
"1536" -> "1564";
"1535" -> "1568";
"1535" -> "1568";
"1534" -> "1570";
"1533" -> "1577";
"1532" -> "1574";
"1532" -> "1563";
"1531" -> "1542";
"1530" -> "1536";
"1529" -> "1543";
"1528" -> "1538";
"1527" -> "1549";
"1526" -> "1552";
"1525" -> "1547";
"1525" -> "1534";
"1524" -> "1535";
"1524" -> "1535";
"1523" -> "1551";
"1522" -> "1545";
"1521" -> "1533";
"1520" -> "1554";
"1519" -> "1550";
"1518" -> "1532";
"1517" -> "1537";
"1516" -> "1544";
"1515" -> "1539";
"1514" -> "1541";
"1513" -> "1547";
"1513" -> "1537";
"1512" -> "1532";
"1511" -> "1555";
"1510" -> "1553";
"1510" -> "1540";
"1509" -> "1546";
"1508" -> "1548";
"1508" -> "1548";
"1508" -> "1548";
"1507" -> "1529";
"1506" -> "1528";
"1505" -> "1526";
"1504" -> "1520";
"1503" -> "1522";
"1503" -> "1517";
"1502" -> "1511";
"1501" -> "1513";
"1501" -> "1513";
"1500" -> "1523";
"1500" -> "1519";
"1499" -> "1509";
"1498" -> "1527";
"1497" -> "1514";
"1496" -> "1510";
"1496" -> "1510";
"1495" -> "1508";
"1495" -> "1508";
"1495" -> "1508";
"1494" -> "1516";
"1493" -> "1521";
"1492" -> "1525";
"1492" -> "1525";
"1491" -> "1530";
"1490" -> "1518";
"1490" -> "1512";
"1489" -> "1524";
"1489" -> "1524";
"1488" -> "1515";
"1487" -> "1531";
"1486" -> "1501";
"1486" -> "1501";
"1485" -> "1500";
"1484" -> "1491";
"1483" -> "1500";
"1482" -> "1497";
"1481" -> "1496";
"1481" -> "1496";
"1480" -> "1503";
"1479" -> "1506";
"1478" -> "1498";
"1477" -> "1493";
"1477" -> "1492";
"1476" -> "1490";
"1475" -> "1487";
"1474" -> "1488";
"1473" -> "1499";
"1472" -> "1489";
"1472" -> "1489";
"1471" -> "1503";
"1470" -> "1504";
"1469" -> "1490";
"1468" -> "1492";
"1467" -> "1494";
"1466" -> "1507";
"1465" -> "1505";
"1464" -> "1502";
"1463" -> "1495";
"1463" -> "1495";
"1463" -> "1495";
"1462" -> "1463";
"1462" -> "1463";
"1462" -> "1463";
"1461" -> "1469";
"1460" -> "1465";
"1459" -> "1479";
"1458" -> "1474";
"1457" -> "1480";
"1457" -> "1471";
"1456" -> "1467";
"1455" -> "1485";
"1455" -> "1483";
"1454" -> "1484";
"1453" -> "1464";
"1452" -> "1482";
"1451" -> "1486";
"1451" -> "1486";
"1450" -> "1478";
"1449" -> "1475";
"1448" -> "1470";
"1447" -> "1473";
"1446" -> "1468";
"1445" -> "1476";
"1444" -> "1466";
"1443" -> "1481";
"1442" -> "1477";
"1441" -> "1481";
"1440" -> "1472";
"1440" -> "1472";
"1439" -> "1477";
"1438" -> "1441";
"1437" -> "1461";
"1436" -> "1457";
"1435" -> "1448";
"1434" -> "1459";
"1433" -> "1453";
"1432" -> "1447";
"1431" -> "1443";
"1430" -> "1449";
"1429" -> "1455";
"1428" -> "1452";
"1427" -> "1445";
"1426" -> "1454";
"1425" -> "1439";
"1424" -> "1451";
"1424" -> "1451";
"1423" -> "1460";
"1422" -> "1450";
"1421" -> "1444";
"1420" -> "1458";
"1419" -> "1455";
"1418" -> "1457";
"1417" -> "1456";
"1416" -> "1446";
"1416" -> "1442";
"1415" -> "1462";
"1415" -> "1462";
"1415" -> "1462";
"1414" -> "1440";
"1414" -> "1440";
"1413" -> "1416";
"1413" -> "1416";
"1412" -> "1427";
"708" -> "738";
"707" -> "724";
"706" -> "741";
"705" -> "725";
"704" -> "727";
"704" -> "727";
"703" -> "735";
"702" -> "739";
"702" -> "738";
"702" -> "734";
"701" -> "720";
"700" -> "716";
"700" -> "716";
"699" -> "712";
"698" -> "706";
"697" -> "711";
"696" -> "722";
"695" -> "705";
"694" -> "704";
"694" -> "704";
"693" -> "718";
"692" -> "719";
"691" -> "707";
"690" -> "721";
"689" -> "702";
"689" -> "702";
"688" -> "717";
"688" -> "708";
"688" -> "702";
"687" -> "703";
"686" -> "710";
"685" -> "715";
"685" -> "715";
"684" -> "709";
"683" -> "713";
"683" -> "713";
"682" -> "713";
"681" -> "723";
"681" -> "723";
"680" -> "714";
"679" -> "691";
"679" -> "681";
"678" -> "693";
"677" -> "700";
"677" -> "700";
"676" -> "686";
"675" -> "685";
"675" -> "685";
"674" -> "699";
"673" -> "698";
"672" -> "695";
"671" -> "681";
"670" -> "701";
"669" -> "689";
"668" -> "687";
"667" -> "689";
"666" -> "680";
"665" -> "690";
"664" -> "688";
"663" -> "694";
"663" -> "694";
"662" -> "683";
"662" -> "683";
"662" -> "682";
"661" -> "692";
"660" -> "684";
"659" -> "688";
"658" -> "697";
"657" -> "688";
"656" -> "696";
"655" -> "669";
"655" -> "662";
"654" -> "659";
"653" -> "663";
"653" -> "663";
"652" -> "665";
"651" -> "670";
"650" -> "675";
"650" -> "675";
"649" -> "661";
"648" -> "673";
"647" -> "658";
"646" -> "677";
"646" -> "677";
"645" -> "676";
"644" -> "674";
"643" -> "660";
"642" -> "679";
"642" -> "679";
"641" -> "671";
"640" -> "664";
"639" -> "656";
"638" -> "678";
"637" -> "672";
"636" -> "662";
"636" -> "662";
"635" -> "667";
"635" -> "657";
"634" -> "666";
"633" -> "668";
"632" -> "644";
"631" -> "634";
"630" -> "652";
"629" -> "645";
"628" -> "655";
"628" -> "636";
"628" -> "636";
"627" -> "653";
"626" -> "654";
"625" -> "639";
"624" -> "655";
"623" -> "649";
"622" -> "643";
"621" -> "637";
"620" -> "651";
"619" -> "641";
"618" -> "648";
"618" -> "646";
"618" -> "646";
"617" -> "638";
"616" -> "635";
"615" -> "640";
"614" -> "633";
"613" -> "647";
"612" -> "642";
"612" -> "642";
"611" -> "650";
"611" -> "650";
"610" -> "653";
"610" -> "635";
"609" -> "614";
"608" -> "622";
"607" -> "627";
"607" -> "610";
"606" -> "611";
"606" -> "611";
"605" -> "619";
"605" -> "612";
"604" -> "616";
"604" -> "615";
"603" -> "612";
"602" -> "613";
"601" -> "631";
"600" -> "623";
"599" -> "632";
"598" -> "624";
"597" -> "617";
"596" -> "618";
"595" -> "628";
"595" -> "628";
"594" -> "630";
"593" -> "626";
"592" -> "629";
"591" -> "621";
"590" -> "620";
"589" -> "618";
"589" -> "618";
"588" -> "625";
"587" -> "610";
"586" -> "628";
"585" -> "609";
"584" -> "594";
"583" -> "607";
"582" -> "590";
"581" -> "605";
"580" -> "608";
"579" -> "607";
"578" -> "599";
"577" -> "597";
"576" -> "604";
"576" -> "604";
"575" -> "586";
"574" -> "600";
"574" -> "598";
"573" -> "605";
"572" -> "588";
"571" -> "603";
"570" -> "592";
"569" -> "587";
"568" -> "589";
"568" -> "589";
"567" -> "602";
"566" -> "595";
"566" -> "595";
"565" -> "593";
"564" -> "606";
"564" -> "606";
"564" -> "596";
"563" -> "591";
"562" -> "601";
"561" -> "574";
"560" -> "582";
"559" -> "568";
"559" -> "568";
"558" -> "572";
"557" -> "576";
"556" -> "580";
"556" -> "573";
"556" -> "571";
"555" -> "575";
"554" -> "569";
"553" -> "581";
"552" -> "585";
"551" -> "564";
"551" -> "564";
"550" -> "570";
"549" -> "577";
"549" -> "564";
"548" -> "584";
"547" -> "567";
"546" -> "576";
"545" -> "566";
"545" -> "566";
"544" -> "565";
"543" -> "583";
"543" -> "579";
"542" -> "563";
"541" -> "578";
"540" -> "562";
"539" -> "574";
"538" -> "543";
"537" -> "551";
"537" -> "551";
"536" -> "541";
"535" -> "548";
"534" -> "556";
"534" -> "556";
"534" -> "556";
"533" -> "550";
"532" -> "557";
"531" -> "553";
"530" -> "546";
"529" -> "560";
"528" -> "559";
"528" -> "559";
"527" -> "542";
"526" -> "558";
"525" -> "540";
"524" -> "552";
"523" -> "545";
"523" -> "545";
"522" -> "543";
"521" -> "549";
"521" -> "547";
"520" -> "549";
"520" -> "539";
"519" -> "561";
"518" -> "554";
"517" -> "555";
"516" -> "544";
"515" -> "528";
"515" -> "528";
"514" -> "520";
"514" -> "520";
"514" -> "517";
"513" -> "525";
"512" -> "527";
"511" -> "534";
"511" -> "534";
"510" -> "523";
"510" -> "523";
"509" -> "521";
"508" -> "518";
"507" -> "532";
"506" -> "526";
"505" -> "531";
"504" -> "521";
"503" -> "536";
"502" -> "524";
"501" -> "537";
"501" -> "537";
"500" -> "529";
"499" -> "538";
"499" -> "522";
"498" -> "533";
"497" -> "516";
"496" -> "535";
"495" -> "530";
"494" -> "534";
"493" -> "519";
"492" -> "503";
"491" -> "511";
"490" -> "514";
"489" -> "498";
"489" -> "493";
"488" -> "502";
"487" -> "513";
"486" -> "512";
"485" -> "506";
"484" -> "508";
"484" -> "495";
"483" -> "507";
"482" -> "499";
"481" -> "514";
"480" -> "501";
"480" -> "501";
"479" -> "514";
"479" -> "497";
"478" -> "494";
"477" -> "510";
"477" -> "510";
"476" -> "509";
"475" -> "500";
"474" -> "504";
"473" -> "505";
"472" -> "496";
"471" -> "499";
"470" -> "511";
"469" -> "515";
"469" -> "515";
"468" -> "485";
"467" -> "492";
"466" -> "476";
"465" -> "479";
"465" -> "479";
"464" -> "480";
"464" -> "480";
"463" -> "475";
"462" -> "483";
"461" -> "489";
"460" -> "486";
"459" -> "491";
"458" -> "474";
"457" -> "484";
"456" -> "489";
"455" -> "472";
"454" -> "488";
"453" -> "490";
"453" -> "477";
"453" -> "477";
"452" -> "481";
"451" -> "473";
"450" -> "471";
"449" -> "484";
"448" -> "469";
"448" -> "469";
"447" -> "478";
"447" -> "470";
"446" -> "482";
"445" -> "487";
"444" -> "450";
"443" -> "463";
"442" -> "461";
"441" -> "456";
"440" -> "454";
"439" -> "460";
"438" -> "458";
"437" -> "464";
"437" -> "464";
"436" -> "448";
"436" -> "448";
"435" -> "446";
"434" -> "466";
"433" -> "445";
"432" -> "467";
"431" -> "468";
"430" -> "455";
"429" -> "462";
"429" -> "449";
"428" -> "465";
"427" -> "447";
"427" -> "447";
"426" -> "457";
"425" -> "452";
"424" -> "453";
"424" -> "453";
"423" -> "459";
"422" -> "451";
"421" -> "465";
"421" -> "453";
"420" -> "434";
"419" -> "427";
"418" -> "425";
"418" -> "421";
"417" -> "436";
"416" -> "422";
"415" -> "430";
"414" -> "444";
"413" -> "443";
"413" -> "429";
"413" -> "429";
"412" -> "433";
"411" -> "442";
"411" -> "441";
"410" -> "428";
"409" -> "432";
"408" -> "426";
"407" -> "427";
"406" -> "440";
"405" -> "431";
"404" -> "435";
"403" -> "436";
"402" -> "439";
"401" -> "437";
"401" -> "437";
"400" -> "423";
"399" -> "424";
"399" -> "424";
"398" -> "438";
"397" -> "421";
"396" -> "410";
"395" -> "401";
"395" -> "401";
"394" -> "403";
"393" -> "397";
"392" -> "416";
"391" -> "415";
"390" -> "398";
"389" -> "413";
"388" -> "417";
"388" -> "411";
"387" -> "418";
"387" -> "418";
"386" -> "413";
"386" -> "413";
"385" -> "406";
"384" -> "411";
"383" -> "407";
"382" -> "399";
"382" -> "399";
"381" -> "420";
"380" -> "404";
"379" -> "405";
"378" -> "419";
"377" -> "408";
"376" -> "414";
"375" -> "412";
"374" -> "402";
"373" -> "400";
"372" -> "409";
"371" -> "386";
"370" -> "387";
"369" -> "384";
"368" -> "389";
"368" -> "386";
"367" -> "374";
"366" -> "396";
"365" -> "380";
"364" -> "373";
"363" -> "372";
"362" -> "385";
"361" -> "393";
"183" -> "216";
"182" -> "210";
"181" -> "221";
"180" -> "218";
"179" -> "205";
"178" -> "210";
"177" -> "192";
"177" -> "192";
"176" -> "183";
"175" -> "187";
"174" -> "200";
"173" -> "179";
"172" -> "193";
"171" -> "201";
"170" -> "189";
"170" -> "188";
"169" -> "190";
"169" -> "190";
"169" -> "190";
"168" -> "185";
"167" -> "202";
"166" -> "197";
"165" -> "187";
"164" -> "195";
"163" -> "180";
"162" -> "198";
"161" -> "181";
"160" -> "199";
"159" -> "191";
"159" -> "191";
"158" -> "186";
"157" -> "184";
"156" -> "182";
"156" -> "178";
"155" -> "194";
"154" -> "196";
"153" -> "177";
"153" -> "177";
"152" -> "174";
"151" -> "154";
"150" -> "159";
"150" -> "159";
"149" -> "171";
"148" -> "167";
"147" -> "160";
"146" -> "172";
"145" -> "157";
"144" -> "158";
"143" -> "170";
"142" -> "155";
"141" -> "176";
"140" -> "163";
"139" -> "168";
"138" -> "169";
"138" -> "169";
"138" -> "169";
"137" -> "162";
"136" -> "173";
"135" -> "175";
"134" -> "161";
"133" -> "165";
"132" -> "166";
"131" -> "170";
"130" -> "164";
"129" -> "156";
"129" -> "156";
"128" -> "132";
"127" -> "138";
"126" -> "152";
"125" -> "149";
"124" -> "137";
"123" -> "138";
"123" -> "138";
"122" -> "141";
"121" -> "145";
"121" -> "136";
"120" -> "148";
"119" -> "142";
"118" -> "151";
"117" -> "144";
"116" -> "131";
"115" -> "140";
"114" -> "150";
"114" -> "150";
"113" -> "130";
"112" -> "143";
"111" -> "139";
"110" -> "147";
"109" -> "146";
"108" -> "133";
"107" -> "129";
"107" -> "129";
"106" -> "134";
"105" -> "135";
"104" -> "153";
"104" -> "153";
"103" -> "123";
"102" -> "107";
"102" -> "107";
"101" -> "109";
"100" -> "124";
"99" -> "113";
"98" -> "123";
"97" -> "122";
"96" -> "104";
"96" -> "104";
"95" -> "111";
"94" -> "117";
"93" -> "110";
"92" -> "118";
"91" -> "114";
"91" -> "114";
"45" -> "58";
"44" -> "74";
"43" -> "63";
"43" -> "63";
"42" -> "68";
"41" -> "61";
"40" -> "70";
"39" -> "71";
"38" -> "77";
"38" -> "69";
"38" -> "60";
"37" -> "75";
"36" -> "66";
"35" -> "57";
"34" -> "54";
"33" -> "67";
"33" -> "67";
"32" -> "56";
"32" -> "55";
"31" -> "78";
"30" -> "76";
"29" -> "43";
"28" -> "53";
"27" -> "43";
"26" -> "46";
"25" -> "41";
"12" -> "32";
"11" -> "32";
"10" -> "35";
"9" -> "52";
"8" -> "30";
"7" -> "42";
"6" -> "33";
"5" -> "33";
"4" -> "34";
"3" -> "39";
"2" -> "49";
"1" -> "45";
"0" -> "40";
"13" -> "36";
"14" -> "50";
"15" -> "50";
"16" -> "44";
"17" -> "48";
"18" -> "47";
"19" -> "37";
"20" -> "31";
"21" -> "51";
"22" -> "38";
"23" -> "38";
"24" -> "38";
"46" -> "73";
"47" -> "59";
"48" -> "62";
"49" -> "58";
"50" -> "65";
"50" -> "65";
"51" -> "64";
"52" -> "57";
"53" -> "72";
"54" -> "87";
"55" -> "90";
"56" -> "94";
"57" -> "81";
"57" -> "101";
"58" -> "102";
"58" -> "102";
"59" -> "89";
"60" -> "98";
"61" -> "103";
"62" -> "88";
"63" -> "80";
"63" -> "80";
"64" -> "100";
"65" -> "91";
"65" -> "91";
"66" -> "79";
"67" -> "96";
"67" -> "96";
"68" -> "99";
"69" -> "85";
"70" -> "82";
"71" -> "84";
"72" -> "83";
"73" -> "93";
"74" -> "92";
"75" -> "89";
"76" -> "97";
"77" -> "86";
"78" -> "95";
"79" -> "121";
"80" -> "119";
"80" -> "126";
"81" -> "125";
"82" -> "106";
"83" -> "120";
"84" -> "108";
"85" -> "115";
"86" -> "127";
"87" -> "105";
"88" -> "128";
"89" -> "112";
"89" -> "116";
"90" -> "121";
"184" -> "209";
"185" -> "213";
"186" -> "217";
"187" -> "212";
"187" -> "219";
"188" -> "208";
"189" -> "223";
"190" -> "214";
"190" -> "214";
"190" -> "214";
"191" -> "222";
"191" -> "222";
"192" -> "220";
"192" -> "220";
"193" -> "221";
"194" -> "204";
"195" -> "203";
"196" -> "206";
"197" -> "226";
"198" -> "211";
"199" -> "224";
"200" -> "225";
"201" -> "207";
"202" -> "215";
"203" -> "245";
"204" -> "247";
"205" -> "228";
"206" -> "240";
"207" -> "237";
"208" -> "239";
"209" -> "233";
"210" -> "231";
"210" -> "250";
"211" -> "238";
"212" -> "235";
"213" -> "229";
"214" -> "249";
"214" -> "249";
"214" -> "249";
"215" -> "248";
"216" -> "244";
"217" -> "244";
"218" -> "230";
"219" -> "241";
"220" -> "234";
"220" -> "234";
"221" -> "232";
"221" -> "251";
"222" -> "246";
"222" -> "246";
"223" -> "243";
"224" -> "242";
"225" -> "236";
"226" -> "227";
"227" -> "274";
"228" -> "264";
"229" -> "269";
"230" -> "261";
"231" -> "259";
"232" -> "256";
"233" -> "268";
"234" -> "253";
"234" -> "253";
"235" -> "263";
"236" -> "255";
"237" -> "273";
"238" -> "270";
"239" -> "272";
"240" -> "262";
"241" -> "265";
"242" -> "260";
"243" -> "254";
"244" -> "258";
"244" -> "271";
"245" -> "275";
"246" -> "266";
"246" -> "266";
"247" -> "252";
"248" -> "267";
"249" -> "257";
"249" -> "257";
"249" -> "257";
"250" -> "259";
"251" -> "256";
"252" -> "290";
"253" -> "280";
"253" -> "280";
"254" -> "276";
"255" -> "287";
"256" -> "284";
"256" -> "285";
"257" -> "292";
"257" -> "292";
"257" -> "296";
"258" -> "293";
"259" -> "285";
"259" -> "285";
"260" -> "288";
"261" -> "277";
"262" -> "291";
"263" -> "279";
"264" -> "297";
"265" -> "299";
"266" -> "282";
"266" -> "282";
"267" -> "295";
"268" -> "294";
"269" -> "283";
"270" -> "278";
"271" -> "289";
"272" -> "276";
"273" -> "298";
"274" -> "281";
"275" -> "286";
"276" -> "302";
"276" -> "313";
"277" -> "311";
"278" -> "300";
"279" -> "303";
"280" -> "304";
"280" -> "304";
"281" -> "317";
"282" -> "319";
"282" -> "319";
"283" -> "320";
"284" -> "314";
"285" -> "321";
"285" -> "321";
"285" -> "323";
"286" -> "316";
"287" -> "312";
"288" -> "322";
"289" -> "301";
"290" -> "318";
"291" -> "307";
"292" -> "315";
"292" -> "315";
"293" -> "309";
"294" -> "308";
"295" -> "305";
"296" -> "315";
"297" -> "306";
"298" -> "306";
"299" -> "310";
"300" -> "346";
"301" -> "335";
"302" -> "347";
"303" -> "332";
"304" -> "341";
"304" -> "341";
"305" -> "345";
"306" -> "326";
"306" -> "336";
"307" -> "337";
"308" -> "331";
"309" -> "336";
"310" -> "344";
"311" -> "342";
"312" -> "325";
"313" -> "330";
"314" -> "329";
"315" -> "324";
"315" -> "324";
"315" -> "340";
"316" -> "333";
"317" -> "343";
"318" -> "327";
"319" -> "328";
"319" -> "328";
"320" -> "339";
"321" -> "334";
"321" -> "334";
"322" -> "340";
"323" -> "338";
"324" -> "348";
"324" -> "364";
"325" -> "350";
"326" -> "371";
"327" -> "354";
"328" -> "353";
"328" -> "353";
"329" -> "369";
"330" -> "355";
"331" -> "360";
"332" -> "349";
"333" -> "367";
"334" -> "358";
"334" -> "358";
"335" -> "361";
"336" -> "366";
"336" -> "368";
"337" -> "352";
"338" -> "358";
"339" -> "368";
"340" -> "357";
"340" -> "363";
"341" -> "351";
"341" -> "351";
"342" -> "359";
"343" -> "362";
"344" -> "356";
"345" -> "350";
"346" -> "365";
"347" -> "370";
"348" -> "379";
"349" -> "381";
"350" -> "378";
"350" -> "383";
"351" -> "395";
"351" -> "395";
"352" -> "391";
"353" -> "382";
"353" -> "382";
"354" -> "392";
"355" -> "387";
"356" -> "390";
"357" -> "376";
"358" -> "388";
"358" -> "388";
"358" -> "394";
"359" -> "375";
"360" -> "377";
"709" -> "736";
"710" -> "726";
"711" -> "742";
"712" -> "728";
"713" -> "737";
"713" -> "737";
"713" -> "737";
"714" -> "743";
"715" -> "730";
"715" -> "730";
"716" -> "741";
"716" -> "741";
"717" -> "739";
"718" -> "732";
"719" -> "740";
"720" -> "731";
"721" -> "727";
"722" -> "733";
"723" -> "729";
"723" -> "744";
"724" -> "753";
"725" -> "755";
"726" -> "765";
"727" -> "752";
"727" -> "762";
"727" -> "762";
"728" -> "757";
"729" -> "763";
"730" -> "746";
"730" -> "746";
"731" -> "766";
"732" -> "748";
"733" -> "747";
"734" -> "760";
"735" -> "745";
"736" -> "756";
"737" -> "762";
"737" -> "762";
"737" -> "768";
"738" -> "750";
"738" -> "759";
"739" -> "766";
"739" -> "766";
"740" -> "761";
"741" -> "749";
"741" -> "754";
"741" -> "758";
"742" -> "767";
"743" -> "764";
"744" -> "751";
"745" -> "777";
"746" -> "791";
"746" -> "791";
"747" -> "789";
"748" -> "781";
"749" -> "769";
"750" -> "785";
"751" -> "784";
"752" -> "786";
"753" -> "790";
"754" -> "769";
"755" -> "792";
"756" -> "774";
"757" -> "771";
"758" -> "772";
"759" -> "784";
"760" -> "770";
"761" -> "788";
"762" -> "783";
"762" -> "783";
"762" -> "783";
"762" -> "783";
"763" -> "778";
"764" -> "782";
"765" -> "779";
"766" -> "776";
"766" -> "780";
"766" -> "787";
"767" -> "773";
"768" -> "775";
"769" -> "801";
"769" -> "812";
"770" -> "813";
"771" -> "814";
"772" -> "797";
"773" -> "810";
"774" -> "796";
"775" -> "795";
"776" -> "803";
"777" -> "811";
"778" -> "807";
"779" -> "798";
"780" -> "799";
"781" -> "809";
"782" -> "815";
"783" -> "804";
"783" -> "804";
"783" -> "804";
"783" -> "804";
"784" -> "802";
"784" -> "802";
"785" -> "808";
"786" -> "804";
"787" -> "799";
"788" -> "794";
"789" -> "806";
"790" -> "793";
"791" -> "800";
"791" -> "800";
"792" -> "805";
"793" -> "836";
"794" -> "835";
"795" -> "835";
"796" -> "833";
"797" -> "822";
"798" -> "834";
"799" -> "824";
"799" -> "832";
"800" -> "830";
"800" -> "830";
"801" -> "839";
"802" -> "821";
"802" -> "836";
"803" -> "817";
"804" -> "837";
"804" -> "838";
"804" -> "838";
"804" -> "838";
"804" -> "838";
"805" -> "827";
"806" -> "818";
"807" -> "823";
"808" -> "828";
"809" -> "820";
"810" -> "826";
"811" -> "816";
"812" -> "825";
"813" -> "829";
"814" -> "831";
"815" -> "819";
"816" -> "863";
"817" -> "846";
"818" -> "848";
"819" -> "842";
"820" -> "841";
"821" -> "840";
"822" -> "853";
"823" -> "843";
"824" -> "850";
"825" -> "862";
"826" -> "861";
"827" -> "855";
"828" -> "858";
"829" -> "850";
"830" -> "849";
"830" -> "849";
"831" -> "860";
"832" -> "852";
"833" -> "854";
"834" -> "856";
"835" -> "844";
"835" -> "851";
"836" -> "845";
"836" -> "864";
"837" -> "857";
"838" -> "847";
"838" -> "847";
"838" -> "847";
"838" -> "847";
"839" -> "859";
"840" -> "870";
"841" -> "865";
"842" -> "871";
"843" -> "873";
"844" -> "874";
"845" -> "880";
"846" -> "888";
"847" -> "876";
"847" -> "876";
"847" -> "876";
"847" -> "885";
"848" -> "872";
"849" -> "886";
"849" -> "886";
"850" -> "889";
"850" -> "889";
"851" -> "867";
"852" -> "879";
"853" -> "875";
"854" -> "866";
"855" -> "878";
"856" -> "887";
"857" -> "869";
"858" -> "882";
"859" -> "883";
"860" -> "881";
"861" -> "884";
"862" -> "883";
"863" -> "868";
"864" -> "877";
"865" -> "901";
"866" -> "911";
"867" -> "905";
"868" -> "908";
"869" -> "906";
"870" -> "894";
"871" -> "914";
"872" -> "899";
"873" -> "909";
"874" -> "915";
"875" -> "907";
"876" -> "891";
"876" -> "891";
"876" -> "913";
"877" -> "900";
"878" -> "910";
"879" -> "892";
"880" -> "893";
"881" -> "898";
"882" -> "912";
"883" -> "890";
"883" -> "904";
"884" -> "897";
"885" -> "913";
"886" -> "895";
"886" -> "895";
"887" -> "902";
"888" -> "903";
"889" -> "892";
"889" -> "896";
"890" -> "929";
"891" -> "925";
"891" -> "938";
"892" -> "918";
"892" -> "932";
"893" -> "930";
"894" -> "934";
"895" -> "936";
"895" -> "936";
"896" -> "923";
"897" -> "921";
"898" -> "935";
"899" -> "926";
"900" -> "928";
"901" -> "933";
"902" -> "927";
"903" -> "931";
"904" -> "937";
"905" -> "940";
"906" -> "924";
"907" -> "922";
"908" -> "920";
"909" -> "916";
"910" -> "922";
"911" -> "941";
"912" -> "917";
"913" -> "938";
"913" -> "938";
"914" -> "919";
"915" -> "939";
"916" -> "959";
"917" -> "943";
"918" -> "949";
"919" -> "965";
"920" -> "963";
"921" -> "964";
"922" -> "947";
"922" -> "947";
"923" -> "951";
"924" -> "955";
"925" -> "945";
"926" -> "944";
"927" -> "950";
"928" -> "948";
"929" -> "961";
"930" -> "958";
"931" -> "951";
"932" -> "960";
"933" -> "966";
"934" -> "953";
"935" -> "942";
"936" -> "962";
"936" -> "962";
"937" -> "956";
"938" -> "945";
"938" -> "945";
"938" -> "952";
"939" -> "946";
"940" -> "954";
"941" -> "957";
"942" -> "972";
"943" -> "976";
"944" -> "971";
"945" -> "985";
"945" -> "985";
"945" -> "985";
"946" -> "988";
"947" -> "980";
"947" -> "984";
"948" -> "989";
"949" -> "973";
"950" -> "967";
"951" -> "970";
"951" -> "977";
"952" -> "992";
"953" -> "978";
"954" -> "982";
"955" -> "975";
"956" -> "991";
"957" -> "986";
"958" -> "979";
"959" -> "987";
"960" -> "968";
"961" -> "991";
"962" -> "981";
"962" -> "981";
"963" -> "990";
"964" -> "969";
"965" -> "983";
"966" -> "974";
"967" -> "993";
"968" -> "1009";
"969" -> "998";
"970" -> "1010";
"971" -> "1018";
"972" -> "1001";
"973" -> "1002";
"974" -> "1000";
"975" -> "1007";
"976" -> "1003";
"977" -> "1010";
"978" -> "995";
"979" -> "1004";
"980" -> "1006";
"981" -> "1005";
"981" -> "1005";
"982" -> "1017";
"983" -> "1015";
"984" -> "1012";
"985" -> "994";
"985" -> "994";
"985" -> "1014";
"986" -> "997";
"987" -> "996";
"988" -> "1008";
"989" -> "1004";
"990" -> "1011";
"991" -> "999";
"991" -> "1013";
"992" -> "1016";
"993" -> "1035";
"994" -> "1025";
"994" -> "1038";
"995" -> "1022";
"996" -> "1042";
"997" -> "1029";
"998" -> "1024";
"999" -> "1032";
"1000" -> "1034";
"1001" -> "1037";
"1002" -> "1031";
"1003" -> "1027";
"1004" -> "1021";
"1004" -> "1036";
"1005" -> "1020";
"1005" -> "1020";
"1006" -> "1033";
"1007" -> "1030";
"1008" -> "1019";
"1009" -> "1041";
"1010" -> "1041";
"1010" -> "1041";
"1011" -> "1023";
"1012" -> "1039";
"1013" -> "1044";
"1014" -> "1043";
"1015" -> "1021";
"1016" -> "1040";
"1017" -> "1026";
"1018" -> "1028";
"1019" -> "1061";
"1020" -> "1056";
"1020" -> "1056";
"1021" -> "1057";
"1021" -> "1057";
"1022" -> "1051";
"1023" -> "1062";
"1024" -> "1049";
"1025" -> "1065";
"1026" -> "1050";
"1027" -> "1064";
"1028" -> "1048";
"1029" -> "1052";
"1030" -> "1047";
"1031" -> "1068";
"1032" -> "1069";
"1033" -> "1055";
"1034" -> "1058";
"1035" -> "1060";
"1036" -> "1045";
"1037" -> "1053";
"1038" -> "1065";
"1039" -> "1054";
"1040" -> "1063";
"1041" -> "1066";
"1041" -> "1067";
"1041" -> "1067";
"1042" -> "1059";
"1043" -> "1046";
"1044" -> "1069";
"1045" -> "1076";
"1046" -> "1092";
"1047" -> "1083";
"1048" -> "1089";
"1049" -> "1093";
"1050" -> "1074";
"1051" -> "1072";
"1052" -> "1073";
"1053" -> "1082";
"1054" -> "1085";
"1055" -> "1079";
"1056" -> "1087";
"1056" -> "1087";
"1057" -> "1094";
"1057" -> "1094";
"1058" -> "1070";
"1059" -> "1091";
"1060" -> "1086";
"1061" -> "1092";
"1062" -> "1084";
"1063" -> "1081";
"1064" -> "1078";
"1065" -> "1071";
"1065" -> "1077";
"1066" -> "1078";
"1067" -> "1080";
"1067" -> "1088";
"1068" -> "1090";
"1069" -> "1075";
"1069" -> "1075";
"1070" -> "1109";
"1071" -> "1096";
"1072" -> "1107";
"1073" -> "1119";
"1074" -> "1104";
"1075" -> "1101";
"1075" -> "1114";
"1076" -> "1106";
"1077" -> "1096";
"1078" -> "1108";
"1078" -> "1108";
"1079" -> "1115";
"1080" -> "1097";
"1081" -> "1112";
"1082" -> "1098";
"1083" -> "1095";
"1084" -> "1105";
"1085" -> "1110";
"1086" -> "1103";
"1087" -> "1118";
"1087" -> "1118";
"1088" -> "1111";
"1089" -> "1099";
"1090" -> "1100";
"1091" -> "1117";
"1092" -> "1097";
"1092" -> "1113";
"1093" -> "1116";
"1094" -> "1102";
"1094" -> "1119";
"1095" -> "1143";
"1096" -> "1122";
"1096" -> "1124";
"1097" -> "1120";
"1097" -> "1120";
"1098" -> "1126";
"1099" -> "1140";
"1100" -> "1123";
"1101" -> "1131";
"1102" -> "1125";
"1103" -> "1141";
"1104" -> "1136";
"1105" -> "1139";
"1106" -> "1130";
"1107" -> "1132";
"1108" -> "1133";
"1108" -> "1133";
"1109" -> "1121";
"1110" -> "1127";
"1111" -> "1137";
"1112" -> "1138";
"1113" -> "1120";
"1114" -> "1134";
"1115" -> "1127";
"1116" -> "1129";
"1117" -> "1142";
"1118" -> "1135";
"1118" -> "1135";
"1119" -> "1128";
"1119" -> "1128";
"1120" -> "1145";
"1120" -> "1145";
"1120" -> "1157";
"1121" -> "1163";
"1122" -> "1148";
"1123" -> "1149";
"1124" -> "1148";
"1125" -> "1166";
"1126" -> "1150";
"1127" -> "1153";
"1127" -> "1156";
"1128" -> "1158";
"1128" -> "1158";
"1129" -> "1162";
"1130" -> "1155";
"1131" -> "1152";
"1132" -> "1165";
"1133" -> "1161";
"1133" -> "1161";
"1134" -> "1154";
"1135" -> "1147";
"1135" -> "1147";
"1136" -> "1153";
"1137" -> "1151";
"1138" -> "1164";
"1139" -> "1144";
"1140" -> "1146";
"1141" -> "1159";
"1142" -> "1155";
"1143" -> "1160";
"1144" -> "1178";
"1145" -> "1168";
"1145" -> "1168";
"1146" -> "1183";
"1147" -> "1190";
"1147" -> "1190";
"1148" -> "1175";
"1148" -> "1191";
"1149" -> "1186";
"1150" -> "1189";
"1151" -> "1184";
"1152" -> "1170";
"1153" -> "1171";
"1153" -> "1192";
"1154" -> "1179";
"1155" -> "1173";
"1155" -> "1180";
"1156" -> "1171";
"1157" -> "1174";
"1158" -> "1176";
"1158" -> "1188";
"1159" -> "1187";
"1160" -> "1182";
"1161" -> "1169";
"1161" -> "1169";
"1162" -> "1167";
"1163" -> "1181";
"1164" -> "1185";
"1165" -> "1172";
"1166" -> "1177";
"1167" -> "1215";
"1168" -> "1218";
"1168" -> "1218";
"1169" -> "1211";
"1169" -> "1211";
"1170" -> "1206";
"1171" -> "1193";
"1171" -> "1208";
"1172" -> "1203";
"1173" -> "1204";
"1174" -> "1197";
"1175" -> "1217";
"1176" -> "1198";
"1177" -> "1202";
"1178" -> "1194";
"1179" -> "1195";
"1180" -> "1209";
"1181" -> "1205";
"1182" -> "1207";
"1183" -> "1212";
"1184" -> "1200";
"1185" -> "1213";
"1186" -> "1210";
"1187" -> "1196";
"1188" -> "1216";
"1189" -> "1199";
"1190" -> "1201";
"1190" -> "1201";
"1191" -> "1217";
"1192" -> "1214";
"1193" -> "1226";
"1194" -> "1227";
"1195" -> "1243";
"1196" -> "1241";
"1197" -> "1229";
"1198" -> "1235";
"1199" -> "1242";
"1200" -> "1233";
"1201" -> "1239";
"1201" -> "1239";
"1202" -> "1234";
"1203" -> "1240";
"1204" -> "1224";
"1205" -> "1219";
"1206" -> "1228";
"1207" -> "1238";
"1208" -> "1230";
"1209" -> "1224";
"1210" -> "1222";
"1211" -> "1236";
"1211" -> "1236";
"1212" -> "1232";
"1213" -> "1232";
"1214" -> "1221";
"1215" -> "1237";
"1216" -> "1220";
"1217" -> "1223";
"1217" -> "1231";
"1218" -> "1225";
"1218" -> "1231";
"1219" -> "1246";
"1220" -> "1262";
"1221" -> "1267";
"1222" -> "1259";
"1223" -> "1248";
"1224" -> "1261";
"1224" -> "1266";
"1225" -> "1244";
"1226" -> "1254";
"1227" -> "1258";
"1228" -> "1265";
"1229" -> "1252";
"1230" -> "1250";
"1231" -> "1248";
"1231" -> "1252";
"1232" -> "1253";
"1232" -> "1253";
"1233" -> "1255";
"1234" -> "1253";
"1235" -> "1247";
"1236" -> "1260";
"1236" -> "1260";
"1237" -> "1256";
"1238" -> "1249";
"1239" -> "1264";
"1239" -> "1264";
"1240" -> "1263";
"1241" -> "1245";
"1242" -> "1251";
"1243" -> "1257";
"1244" -> "1279";
"1245" -> "1282";
"1246" -> "1278";
"1247" -> "1273";
"1248" -> "1287";
"1248" -> "1287";
"1249" -> "1274";
"1250" -> "1270";
"1251" -> "1289";
"1252" -> "1291";
"1252" -> "1291";
"1253" -> "1268";
"1253" -> "1269";
"1253" -> "1273";
"1254" -> "1288";
"1255" -> "1271";
"1256" -> "1281";
"1257" -> "1272";
"1258" -> "1283";
"1259" -> "1286";
"1260" -> "1276";
"1260" -> "1276";
"1261" -> "1277";
"1262" -> "1285";
"1263" -> "1290";
"1264" -> "1275";
"1264" -> "1275";
"1265" -> "1280";
"1266" -> "1284";
"1267" -> "1288";
"1268" -> "1310";
"1269" -> "1302";
"1270" -> "1307";
"1271" -> "1304";
"1272" -> "1303";
"1273" -> "1310";
"1273" -> "1313";
"1274" -> "1309";
"1275" -> "1295";
"1275" -> "1295";
"1276" -> "1305";
"1276" -> "1305";
"1277" -> "1306";
"1278" -> "1297";
"1279" -> "1296";
"1280" -> "1308";
"1281" -> "1299";
"1282" -> "1303";
"1283" -> "1301";
"1284" -> "1298";
"1285" -> "1294";
"1286" -> "1312";
"1287" -> "1294";
"1287" -> "1300";
"1288" -> "1311";
"1288" -> "1311";
"1289" -> "1293";
"1290" -> "1292";
"1291" -> "1300";
"1291" -> "1314";
"1292" -> "1322";
"1293" -> "1320";
"1294" -> "1329";
"1294" -> "1329";
"1295" -> "1327";
"1295" -> "1327";
"1296" -> "1316";
"1297" -> "1325";
"1298" -> "1331";
"1299" -> "1318";
"1300" -> "1315";
"1300" -> "1319";
"1301" -> "1333";
"1302" -> "1317";
"1303" -> "1328";
"1303" -> "1336";
"1304" -> "1338";
"1305" -> "1321";
"1305" -> "1332";
"1306" -> "1331";
"1307" -> "1337";
"1308" -> "1324";
"1309" -> "1339";
"1310" -> "1330";
"1310" -> "1330";
"1311" -> "1334";
"1311" -> "1335";
"1312" -> "1323";
"1313" -> "1326";
"1314" -> "1315";
"1315" -> "1361";
"1315" -> "1362";
"1316" -> "1342";
"1317" -> "1346";
"1318" -> "1340";
"1319" -> "1357";
"1320" -> "1341";
"1321" -> "1342";
"1322" -> "1343";
"1323" -> "1356";
"1324" -> "1355";
"1325" -> "1358";
"1326" -> "1364";
"1327" -> "1349";
"1327" -> "1349";
"1328" -> "1354";
"1329" -> "1353";
"1329" -> "1353";
"1330" -> "1345";
"1330" -> "1345";
"1331" -> "1359";
"1331" -> "1363";
"1332" -> "1347";
"1333" -> "1360";
"1334" -> "1344";
"1335" -> "1362";
"1336" -> "1348";
"1337" -> "1352";
"1338" -> "1350";
"1339" -> "1351";
"1340" -> "1378";
"1341" -> "1380";
"1342" -> "1376";
"1342" -> "1376";
"1343" -> "1365";
"1344" -> "1381";
"1345" -> "1367";
"1345" -> "1374";
"1346" -> "1368";
"1347" -> "1365";
"1348" -> "1382";
"1349" -> "1383";
"1349" -> "1383";
"1350" -> "1389";
"1351" -> "1377";
"1352" -> "1373";
"1353" -> "1370";
"1353" -> "1388";
"1354" -> "1372";
"1355" -> "1386";
"1356" -> "1384";
"1357" -> "1385";
"1358" -> "1379";
"1359" -> "1366";
"1360" -> "1388";
"1361" -> "1387";
"1362" -> "1371";
"1362" -> "1375";
"1363" -> "1366";
"1364" -> "1369";
"1365" -> "1396";
"1365" -> "1396";
"1366" -> "1399";
"1366" -> "1412";
"1367" -> "1394";
"1368" -> "1406";
"1369" -> "1400";
"1370" -> "1411";
"1371" -> "1413";
"1372" -> "1391";
"1373" -> "1393";
"1374" -> "1403";
"1375" -> "1413";
"1376" -> "1398";
"1376" -> "1408";
"1377" -> "1407";
"1378" -> "1401";
"1379" -> "1395";
"1380" -> "1397";
"1381" -> "1398";
"1382" -> "1402";
"1383" -> "1405";
"1383" -> "1405";
"1384" -> "1390";
"1385" -> "1411";
"1386" -> "1404";
"1387" -> "1408";
"1388" -> "1392";
"1388" -> "1410";
"1389" -> "1409";
"1390" -> "1435";
"1391" -> "1432";
"1392" -> "1431";
"1393" -> "1420";
"1394" -> "1415";
"1395" -> "1426";
"1396" -> "1419";
"1396" -> "1429";
"1397" -> "1428";
"1398" -> "1425";
"1398" -> "1434";
"1399" -> "1437";
"1400" -> "1423";
"1401" -> "1417";
"1402" -> "1430";
"1403" -> "1415";
"1404" -> "1433";
"1405" -> "1414";
"1405" -> "1414";
"1406" -> "1415";
"1407" -> "1438";
"1408" -> "1424";
"1408" -> "1424";
"1409" -> "1422";
"1410" -> "1421";
"1411" -> "1418";
"1411" -> "1436";
 }