1
38
1  698.7258 282.5968
101  698.7981 284.0122
201  699.3635 285.5186
301  698.7036 284.7933
401  697.9639 283.5511
501  697.9639 283.5511
601  698.4355 283.5838
701  698.4355 283.5838
801  699.3541 284.2057
901  699.3541 284.2057
1001  699.3541 284.2057
1101  699.3541 284.2057
1201  699.3541 284.2057
1301  703.0177 281.9061
1401  703.5441 282.5021
1501  702.2601 284.6644
1601  702.2329 284.3492
1701  703.4874 284.8061
1801  702.2214 285.4841
1901  704.9969 287.1548
2001  692.9990 277.3985
2101  694.1516 272.2708
2201  693.9479 271.4185
2301  694.8022 274.7301
2401  698.1310 275.1902
2501  695.9080 277.4569
2601  695.6499 278.1634
2701  696.6839 279.3275
2801  695.6907 278.5088
2901  695.6518 280.2744
3001  695.9175 280.0651
3101  694.8282 277.8557
3201  695.1064 280.4674
3301  695.8949 278.5427
3401  695.8949 278.5427
3501  696.3598 281.8856
3601  696.1473 278.6797
3701  696.1137 279.3956
3801  695.2030 279.3344
3901  699.6935 281.6290
4001  699.6111 279.2048
4101  698.7704 278.1116
4201  699.1511 283.2255
4301  695.8232 278.9426
4401  695.7120 280.4181
4501  695.9715 281.3301
4601  697.0414 282.3340
4701  697.0414 282.3340
4801  697.0414 282.3340
4901  694.8240 283.3135
5001  698.2384 287.5448
5101  697.7844 287.4296
5201  698.3848 287.0340
5301  700.6613 295.1774
5401  703.6349 298.5677
5501  714.4961 301.4234
5601  721.9516 300.0161
5701  718.2814 300.1858
5801  718.0806 300.0161
5901  711.4136 297.6360
6001  711.8535 301.4984
6101  713.2389 299.4136
6201  713.2419 299.0484
6301  712.3630 300.5414
6401  707.3930 299.2976
6501  708.2615 300.6850
6601  690.0161 294.2097
6701  687.3687 284.7547
6801  683.2419 276.7903
6901  672.5968 254.5323
7001  654.2097 243.8871
7101  654.7494 243.1480
7201  653.3872 243.0266
7301  651.0736 237.0823
7401  651.3065 236.1452
7501  651.7432 234.3950
7601  657.5133 229.4227
7701  655.1774 244.8548
7801  660.0152 239.2860
7901  662.2079 233.9425
8001  661.9837 236.1616
8101  664.2062 234.2284
8201  658.0806 229.3710
8301  662.9194 231.3065
8401  666.1935 231.4106
8501  666.6888 229.1691
8601  667.0729 228.7095
8701  671.1042 225.4077
8801  666.5386 233.1919
8901  667.7695 228.7506
9001  664.8196 230.7742
9101  663.9387 233.3745
9201  666.4824 228.7600
9301  662.7265 229.6428
9401  667.7581 234.2097
9501  667.7581 234.2097
9601  667.7581 234.2097
9701  667.7831 232.8658
9801  669.0986 232.1457
9901  669.2847 233.7244
10001  663.8871 236.1452
