1
4
1  145.1774 335.8226
101  143.7022 340.3442
201  144.2468 338.7170
301  143.5622 339.3443
401  145.1472 338.2171
501  144.1725 336.0472
601  142.5175 334.0333
701  142.5175 334.0333
801  146.1452 334.8548
901  149.0484 332.9194
1001  158.7258 322.2742
1101  165.5000 319.3710
1201  168.9725 324.0432
1301  169.2935 322.9767
1401  167.4355 321.3065
1501  171.2806 319.9426
1601  171.2806 319.9426
1701  171.2806 319.9426
1801  168.6570 330.3752
1901  165.4935 331.7092
2001  155.8226 341.6290
2101  157.7782 348.8499
2201  160.6613 343.5645
2301  158.9757 343.4426
2401  156.7903 348.4032
2501  156.7903 344.5323
2601  156.7903 344.5323
2701  151.8568 340.0527
2801  144.2097 344.5323
2901  145.1774 353.2419
3001  138.9570 359.7996
3101  138.4032 349.3710
3201  147.1129 349.3710
3301  135.5000 362.9194
3401  140.3387 381.3065
3501  142.2742 389.0484
3601  148.0806 409.3710
3701  147.1246 409.2336
3801  148.0884 406.3948
3901  146.3475 404.1886
4001  152.9194 400.6613
4101  154.9616 402.0199
4201  153.4963 397.5376
4301  144.2097 397.7581
4401  158.7258 405.5000
4501  151.6057 404.8504
4601  147.1129 404.5323
4701  150.3937 402.9841
4801  150.2465 403.5833
4901  145.6531 400.4691
5001  145.1774 386.1452
5101  141.5018 382.2017
5201  143.3322 383.7171
5301  142.2742 370.6613
5401  142.2927 372.8032
5501  137.4355 381.3065
5601  137.4355 381.3065
5701  137.2763 380.9106
5801  137.0065 379.5575
5901  136.1773 374.9432
6001  136.9376 376.7907
6101  135.1972 382.3872
6201  138.4032 368.7258
6301  135.5000 360.0161
6401  136.1383 361.6184
6501  135.9766 363.7572
6601  137.7583 358.3253
6701  138.0839 360.7647
6801  138.1232 360.5716
6901  137.8270 358.4138
7001  138.2428 361.0849
7101  140.3615 362.9281
7201  140.2708 362.4112
7301  140.0363 362.8531
7401  137.6186 365.0677
7501  142.9100 367.9043
7601  135.2372 362.7969
7701  136.2716 362.5964
7801  135.2007 368.4705
7901  140.3387 388.0806
8001  143.7338 391.5434
8101  139.3710 389.0484
8201  136.4765 388.4168
8301  138.4032 394.8548
8401  134.6936 398.2186
8501  136.4677 396.7903
8601  133.2483 394.1669
8701  135.4191 394.9825
8801  133.8128 392.8547
8901  139.3710 374.5323
9001  138.8788 369.0583
9101  137.8233 370.2144
9201  136.4130 365.6241
9301  135.3221 365.5727
9401  139.3710 355.1774
9501  140.9862 349.3018
9601  134.5323 353.2419
9701  140.3387 352.2742
9801  150.7991 358.0179
9901  151.9159 351.8878
10001  152.8355 357.0128
