1
11
1  424.8548 376.4677
101  429.1775 376.9631
201  422.9194 372.5968
301  393.8871 314.5323
401  392.9194 243.8871
501  389.4916 240.3300
601  401.8816 237.3918
701  405.5000 240.0161
801  408.4032 240.9839
901  425.8226 239.0484
1001  425.8226 239.0484
1101  426.7958 236.2231
1201  434.5323 229.3710
1301  438.2030 222.5498
1401  436.8358 225.5260
1501  431.6088 227.1601
1601  432.9116 227.4450
1701  427.7581 208.0806
1801  435.5000 175.1774
1901  442.2742 183.8871
2001  438.4652 183.8432
2101  457.8550 175.9819
2201  454.8548 179.0484
2301  465.8843 173.5017
2401  469.8800 172.4046
2501  468.6251 170.4303
2601  465.4879 175.2323
2701  465.4879 175.2323
2801  465.4879 175.2323
2901  467.4396 171.8037
3001  467.4396 171.8037
3101  467.4396 171.8037
3201  467.4396 171.8037
3301  467.4396 171.8037
3401  457.9147 176.0108
3501  460.6976 174.5544
3601  460.3886 174.5871
3701  456.9367 176.9935
3801  458.6835 174.9756
3901  459.4094 174.5769
4001  434.5323 190.6613
4101  426.7903 185.8226
4201  426.1791 187.6252
4301  429.0514 188.0998
4401  428.6069 186.6353
4501  427.1767 185.7226
4601  425.8862 186.2443
4701  427.0826 183.6203
4801  428.8642 183.0783
4901  429.4248 183.5315
5001  427.4423 184.4930
5101  427.0919 182.9933
5201  428.1824 185.0963
5301  428.6481 183.9413
5401  427.7900 183.2807
5501  428.6481 183.9413
5601  427.0706 184.5413
5701  428.6481 183.9413
5801  427.6032 181.7353
5901  427.5686 183.3046
6001  427.5686 183.3046
6101  427.5686 183.3046
6201  427.5686 183.3046
6301  428.1098 183.1513
6401  428.0178 184.4404
6501  428.0178 184.4404
6601  428.0178 184.4404
6701  428.0178 184.4404
6801  428.0178 184.4404
6901  428.1950 183.8874
7001  428.1950 183.8874
7101  428.1950 183.8874
7201  428.1950 183.8874
7301  428.1950 183.8874
7401  429.2015 183.7394
7501  429.3516 184.5156
7601  450.0161 173.2419
7701  448.0766 178.7059
7801  454.3163 174.4204
7901  451.8117 175.1169
8001  451.7011 174.3875
8101  451.7011 174.3875
8201  451.7011 174.3875
8301  451.7011 174.3875
8401  451.7011 174.3875
8501  451.5740 174.4541
8601  447.6948 174.2415
8701  448.3702 176.7455
8801  448.0806 174.2097
8901  447.1129 178.0806
9001  446.1144 184.4818
9101  439.7285 187.9519
9201  433.5645 193.5645
9301  417.1129 157.7581
9401  450.9839 139.3710
9501  436.5832 143.6520
9601  427.7581 168.4032
9701  432.7269 167.3044
9801  424.8548 179.0484
9901  422.0898 176.2353
10001  427.3351 176.5092
