1
14
1  442.2742 183.8871
101  451.9516 181.9516
201  442.6553 182.5694
301  437.6890 181.9513
401  428.7258 174.2097
501  428.7258 174.2097
601  428.7258 174.2097
701  428.7258 174.2097
801  425.8570 168.3043
901  426.7903 159.6935
1001  448.0806 154.8548
1101  454.8548 150.9839
1201  455.7091 146.1113
1301  452.5814 149.2425
1401  449.9319 143.6141
1501  449.9319 143.6141
1601  422.9194 128.7258
1701  446.1452 118.0806
1801  454.1017 113.8701
1901  459.6935 107.4355
2001  460.0408 106.5824
2101  460.0408 106.5824
2201  460.0408 106.5824
2301  460.0408 106.5824
2401  460.0408 106.5824
2501  460.0408 106.5824
2601  458.7131 107.0188
2701  458.7131 107.0188
2801  454.5605 106.9750
2901  455.6497 106.7821
3001  455.6497 106.7821
3101  455.7467 107.4229
3201  455.7467 107.4229
3301  455.7467 107.4229
3401  455.0585 107.1400
3501  451.9785 102.6549
3601  453.2548 104.4368
3701  451.2570 104.2280
3801  454.1967 105.4938
3901  450.6266 105.6667
4001  445.5553 107.3343
4101  446.0706 106.0424
4201  449.0738 106.8225
4301  449.0738 106.8225
4401  449.0738 106.8225
4501  449.0738 106.8225
4601  447.8762 106.8101
4701  447.8762 106.8101
4801  447.8762 106.8101
4901  450.4192 105.9811
5001  447.8016 105.6394
5101  447.8016 105.6394
5201  446.7496 107.3067
5301  448.4098 106.1268
5401  445.7995 105.9486
5501  447.6040 105.6573
5601  447.6040 105.6573
5701  447.6040 105.6573
5801  447.8653 107.3006
5901  450.0212 106.9490
6001  447.6656 105.6830
6101  449.7469 106.6270
6201  449.7469 106.6270
6301  448.3530 107.4429
6401  448.3530 107.4429
6501  452.4341 107.9077
6601  452.1945 106.9900
6701  449.6664 106.7627
6801  444.2097 115.1774
6901  444.2097 115.1774
7001  444.2097 115.1774
7101  444.2097 115.1774
7201  444.3367 114.6864
7301  444.3367 114.6864
7401  444.3852 115.3537
7501  444.3852 115.3537
7601  444.3852 115.3537
7701  444.3852 115.3537
7801  444.3852 115.3537
7901  445.3090 114.5225
8001  445.3090 114.5225
8101  445.2770 114.6124
8201  445.2770 114.6124
8301  455.8226 116.1452
8401  455.8226 116.1452
8501  455.8226 116.1452
8601  455.8226 116.1452
8701  455.8226 116.1452
8801  455.8226 116.1452
8901  456.0696 116.3820
9001  447.1129 120.9839
9101  430.6613 132.5968
9201  453.8871 146.1452
9301  475.1774 165.5000
9401  499.3710 174.2097
9501  499.3710 174.2097
9601  525.5000 175.1774
9701  541.9516 164.5323
9801  540.9839 157.7581
9901  536.1888 154.8913
10001  533.2419 157.7581
